   0, "Demon world.jpg", "Demon world", "Demon world", 0
     1, "map2.jpg", "map2", "Town Square", 8 
      2, "Map3.jpg", "Cave of evil", "Cave of evil", 0
      3, "map2.jpg", "Game Town", "Game Town", 8	  
 	  4, "Fight Quest.jpg" "Fight" "Fight Quests", 0
      5, "Map2.jpg", "PK arena", "PK arena", 22
      6, "Map2.jpg", "Pet arena", "Pet arena", 9
