;					1			// private use only (item cannot be given to another player)
;					2			// reserved
;	0	1						2	3	4		5	6	7	8	9	10	11	12	13	14							15				16

	1,	"Small Potion",			0,	0.0,3,		,	,	,	,	,	50,	,	,	50,	,						,				,				
	2,	"Minor Potion",			,	1.0,6,		,	,	,	,	,	85,	,	,	40,	,						,				,				
	3,	"Mid Potion",			,	2,	11,		,	,	,	,	,	200,,	,	30,	,						,				,				
	4,	Potion,					,	3,	16,		,	,	,	,	,	260,,	,	20,	,						,				,				
	5,	"Big Potion",			,	4,	25,		,	,	,	,	,	420,,	,	10,	,						,				,				
	6,	"Super Potion",			,	5,	41,		,	,	,	,	,	580,,	,	5,	,						,				,				
	10,	"Small Mana Potion",	,	6,	4,		,	,	,	,	,	,	20,	,	50,	,						,				,				
	11,	"Minor Mana Potion",	,	7,	9,		,	,	,	,	,	,	40,	,	40,	,						,				,				
	12,	"Mid Mana Potion",		,	8,	13,		,	,	,	,	,	,	100,,	30,	,						,				,				
	13,	"Mana Potion",			,	9,	21,		,	,	,	,	,	,	180,,	20,	,						,				,				
	14,	"Big Mana Potion",		,	10,	37,		,	,	,	,	,	,	240,,	10,	,						,				,				
	15,	"Super Mana Potion",	0,	11,	53,		,	,	,	,	,	,	370,,	5,	,						,				,				
	20,	Page,					4.0.0.0.0.64000,53,	2,		0,	,	,	,	,	,	,	,	130,"Used to make books.",	,				,				
	21,	Shovel,					,	9.1,,		101,,	,	,	,	,	,	,	,	"Shutup its a shovel.",	,				,				
	22,	"Strange Relic",		,	23.1,,		101,,	,	,	,	,	,	,	,	,						,				,				
	23,	"Sleeping Mat",			4.1.51.0.0.1,1.1,,		30.0.1,,	,	,	,	,	,	,	-1,	,						,				,				
	24,	"Charged Relic",		,	22.1,,		101,,	,	,	,	,	,	,	,	,						,				,				

;Misc dropables
	30,	"Gold Coins",			,	49,	250,	,	,	,	,	,	,	,	,	1,	"Ooo Money..",			,				,				
	31,	"Silver Coins",			,	26.1,150,	,	,	,	,	,	,	,	,	5,	"Ooo Money..",			,				,				
	32,	"Brass Coins",			,	13.1,50,		,	,	,	,	,	,	,	,	10,	"Ooo Money..",			,				,				
;Pet munchies
	40,	"Pet Protien Shake",	23,	"15.Frame #5",75,		999,,	,	25,	150,,	,	,	,	"Health Freak..",		,				,				
	41,	"Pet Fruits",			23,	16,	50,		999,,	,	100,100,,	,	,	,	"Yummy Fruits.",		,				,				
	42,	"Pet Veggies",			23,	19,	25,		999,,	,	75,	75,	,	,	,	,	Icky.,					,				,				
	43,	"Pet Calcium Chewable",	23,	17,	75,		999,,	,	150,25,	,	,	,	,	Chalky..,				,				,				
	44,	"Pet Shroom",			23,	18,	50,		999,,	,	-100,200,,	,	,	,	"May cause..Well its a shroom.",,				,				
	45,	,						23,	14,	,		,	,	,	,	,	,	,	,	,	,						,				,				
46,
47,
48,
49,
;Spells
	50,	"Mage Masher",			,	,	,		,	,	,	,	,	-200,-300,,	,	,						,				,				
;Cures
	60,	"Cure Poison",			1,	12,	5,		,	,	,	,	,	,	,	-2,	5,	,						,				,				
	61,	"Cure Sap",				1,	13,	5,		,	,	,	,	,	,	,	-3,	5,	,						,				,				
	62,	"Cure Gag",				1,	14,	10,		,	,	,	,	,	,	,	-5,	3,	,						,				,				
	63,	"Cure Numb",				1,	15,	10,		,	,	,	,	,	,	,	-6,	3,	,						,				,				
	64,	"Cure Confuse",			1,	16,	5,		,	,	,	,	,	,	,	-8,	5,	,						,				,				
	65,	"Cure Stun",				1,	17,	20,		,	,	,	,	,	,	,	-4,	1,	,						,				,				
66,
;Teleports
	90,	"Teleport to Atlis",	4.0.0.1.0.1,0,	,		,	,	,	,	,	,	,	,	,	,						,				,				
	91,	"Teleport to Gibdos",	4.1.46.0.0.1,,	,		,	,	,	,	,	,	,	,	,	,						,				,				

;Starting Items
	100,"Quilt Armor",			11,	5,	2,		0,	,	,	2,	,	,	,	,	-1,	,						,				,				
	101,Circlet,				10,	13,	2,		0,	,	,	2,	,	,	,	,	-1,	,						,				,				
	102,Sash,					20,	4,	2,		0,	,	,	1,	,	,	,	,	-1,	,						,				,				
	103,"Weak Guard Shield",	21,	10,	2,		0.1000,,	,	4,	,	,	,	,	-1,	,						,				,				
	104,"Battle Helm",			10,	17,	2,		0.1005,,	,	1,	2,	,	,	0,	-1,	,						,				,				
	105,Slippers,				23,	11,	2,		,	,	,	1,	,	,	,	,	0.0,,						,				,				
	106,Spellbook,				21,	1.1,2,		0.1002,,	,	1,	1,	,	,	,	-1,	,						,				,				
	107,Tome,					21,	0.1,2,		0.1003,,	,	,	2,	,	,	0,	-1,	,						,				,				
	108,"Holy Book",			21,	2.1,2,		0.1004,,	,	2,	,	,	,	,	,	,						,				,				
	109,"Crude Buckler",		21,	1,	2,		0.1001,,	,	1,	1,	,	,	,	-1,	,						,				,				
	110,"Crude Bracers",		22,	1,	2,		0,	,	,	,	1,	,	,	,	,	,						,				,				
	111,"Dull Sword",			12,	1,	2,		0,	,	,	1,	2,	,	,	,	-1,	,						,				1,				
	112,Branch,					13,	7,	2,		0,	,	,	1,	1,	,	,	,	-1,	,						,				,				
	113,"Wooden Shortbow",		14,	1,	2,		0,	,	,	1,	3,	,	,	,	-1,	,						,				30.0,			
	114,"Plain Harp",			15,	1,	2,		0.0,,	,	3,	,	,	,	,	-1,	,						,				,				
	115,Dagger,					16,	1,	2,		0,	,	,	,	3,	,	,	,	-1,	,						,				5,				
	116,"Log Splitter",			17,	1,	2,		0,	,	,	-1,	5,	,	,	,	-1,	,						,				3,				
	117,Club,					18,	1,	2,		0,	,	,	2,	1,	,	,	,	-1,	,						,				1,				
	118,"Preserved Head",		19,	1,	2,		0,	,	,	,	2,	,	,	,	-1,	,						,				,				
	119,"Practice Arrows",		21,	7.1,2,		,	,	,	,	2,	,	,	,	-1,	,						,				,				
;Swords
	120,"Copper Broad Sword",	12,	2,	5,		10,	,	,	5,	10,	,	,	,	5,	,						,				1,				
	121,"Copper Long Sword",		12,	4,	10,		10,	,	,	7,	14,	,	,	,	4,	,						,				1,				
	122,"Copper Light Sword",	12,	3,	20,		10,	,	,	9,	18,	,	,	,	3,	,						,				1,				
	123,"Bronze Broad Sword",	12,	2,	40,		10,	,	,	11,	22,	,	,	,	2,	,						,				1,				
	124,"Bronze Long Sword",		12,	6,	80,		10,	,	,	13,	26,	,	,	,	1,	,						,				1,				
	125,"Bronze Falchion*",		12,	11,	60,		10,	,	,	15,	30,	,	,	,	1,	,						,				1,				
	126,"War Sword*",			12,	3,	60,		10,	,	,	17,	34,	,	,	,	1,	,						,				1,				
	127,Scythe*,				12,	10,	60,		10,	,	,	-140,120,,	,	,	1,	"It's a freaking Scythe!",,				1,				
	128,"Great Sword*",			12,	5,	60,		10,	,	,	19,	38,	,	,	,	1,	,						,				1,				
	129,"Falcata*",				12,	1,	60,		10,	,	,	21,	42,	,	,	,	1,	,						,				1,				
	130,"Apprentice Broad Sword**",12,	6,	100,	20,	,	,	25,	50,	,	,	,	100.31,,						,				1,				
	131,"Desert Falcata",		12,	1,	350,	10,	,	,	23,	46,	,	,	,	,	,						,				1,				
	132,"Adept Long Sword***",	12,	4,	500,	40,	,	,	41,	82,	,	,	,	,	,						,				1,				




	170,"*Kimen's Law*",		12,	7,	200,	10,	,	,	10,	130,,	,	,	,	"A unique sword.",		,				,				

;Swordsmen Sheilds
	200,"Wooden Kite Shield",	21,	8,	5,		10.1000,,	,	6,	,	,	,	,	5,	,						,				,				
	201,"Wooden Tower Shield",	21,	4,	10,		10.1000,,	,	10,	,	,	,	,	4,	,						,				,				
	202,"Wooden Guard Shield",	21,	10,	20,		10.1000,,	,	14,	,	,	,	,	3,	,						,				,				
	203,"Crude Ward",			21,	13,	40,		10.1000,,	,	18,	,	,	,	,	2,	,						,				,				
	204,"Copper Kite Shield",	21,	9,	80,		10.1000,,	,	22,	,	,	,	,	2,	,						,				,				
	205,"Copper Tower Shield*",	21,	4,	60,		10.1000,,	,	26,	,	,	,	,	2,	,						,				,				
	206,"Copper Guard Shield*",	21,	10,	60,		10.1000,,	,	30,	,	,	,	,	2,	,						,				,				
	207,"Copper Ward*",			21,	13,	60,		10.1000,,	,	34,	,	,	,	,	2,	,						,				,				
	208,"Bronze Kite Shield*",	21,	9,	60,		10.1000,,	,	38,	,	,	,	,	2,,						,				,				
	209,"Bronze Guard Shield*",	21,	10,	60,		10.1000,,	,	42,	,	,	,	,	2,	,						,				,				
	210,"Apprentice Ward**",	21,	13,	100,	10.1000,,	,	54,	,	,	,	,	100.31,,						,				,				
	211,"Desert Tower Shield",	21,	4,	350,	10.1000,,	,	46,	0,	,	,	,	,	,						,				,				
	212,"Adept Great Shield***",21,	14,	500,	40.1000,,	,	82,	,	,	,	,	,	,						,				,				
	213,"Copper Great Shield*",	21,	14,	70,		10.1000,,	,	50,	,	,	,	,	1,	,						,				,				

;Fencer Sheilds
	250,"Studded Buckler",		21,	1,	5,		10.1001,,	,	3,	3,	,	,	0,	5,	,						,				,				
	251,"Copper Buckler",		21,	4,	10,		10.1001,,	,	4,	4,	,	0,	,	4,	,						,				,				
	252,"Small Buckler",		21,	1,	20,		10.1001,,	,	5,	5,	,	,	,	3,	,						,				,				
	253,"Round Copper Buckler",	21,	2,	40,		10.1001,,	,	6,	6,	,	,	0,	2,	,						,				,				
	254,"Brass Defender",		21,	6,	80,		10.1001,,	,	7,	7,	,	,	,	2,	,						,				,				
	255,"Spiked Guard*",		21,	12,	50,		10.1001,,	,	6,	10,	,	,	,	2,	,						,				,				
	256,"Bronze Buckler*",		21,	2,	50,		10.1001,,	,	9,	9,	,	,	,	2,	,						,				,				
	257,"Gemmed Buckler*",		21,	5,	50,		10.1001,,	,	10,	10,	,	,	,	2,	,						,				,				
	258,"Refined Bronze Buckler*",21,	2,	50,		10.1001,,	,	11,	11,	,	,	,	2,	,						,				,				
	259,"Bronze Defender*",		21,	6,	50,		10.1001,,	,	12,	12,	,	,	,	2,	,						,				,				
	260,"Apprentice Buckler**",	21,	1,	100,	20.1001,,	,	15,	15,	,	,	,	100.28,,						,				,				
	261,"Desert Defender",		21,	7,	350,	10.1001,,	,	13,	13,	,	,	,	,	,						,				,				
	262,"Adept Guard***",		21,	12.0,500,	40.1001,,	,	22,	22,	,	,	,	,	,						,				,				
	263,"Studded Bronze Buckler",21,	1,	70,		10.1001,,	,	14,	14,	,	,	,	1,	,						,				,				

;Fencer Swords
	300,"Glass Shard",			16,	3,	5,		10,	,	,	,	14,	,	,	,	5,	,						,				5,				
	301,"Copper Kriss",			16,	2,	10,		10,	,	,	,	18,	,	,	,	4,	,						,				5,				
	302,Rapier,					16,	5,	20,		10,	,	,	,	22,	,	,	,	3,	,						,				5,				
	303,"Copper Cutlass",		16,	4,	40,		10,	,	,	,	26,	,	,	,	2,	,						,				5,				
	304,"Bronze Kriss",			16,	2,	80,		10,	,	,	,	30,	,	,	,	1,	,						,				5,				
	305,"Brass Shard*",			16,	3,	50,		10,	,	,	,	34,	,	,	,	1,	,						,				5,				
	306,"Bronze Cutlass*",		16,	4,	50,		10,	,	,	,	38,	,	,	,	1,	,						,				5,				
	307,"Spiked Kriss*",			16,	6,	50,		10,	,	,	,	42,	,	,	0,	1,	,						,				5,				
	308,"Bronze Rapier*",		16,	5,	50,		10,	,	,	,	46,	,	0,	,	1,	,						,				5,				
	309,Scimitar*,				16,	7,	50,		10,	,	,	,	50,	,	0,	,	1,	,						,				5,				
	310,"Apprentice Cutlass**",	16,	4,	100,	20,	,	,	,	58,	,	,	,	100.28,,						,				5,				
	311,"Desert Shard",			16,	3,	350,	10,	,	,	,	54,	,	,	,	,	,						,				5,				
	312,"Adept Rapier***",		16,	5,	500,	40,	,	,	,	90,	,	,	,	,	,						,				5,				

;Bard Harps
	350,"Oak Harp",				15,	1,	5,		10,	,	,	8,	2,	,	,	,	5,	,						,				,				
	351,"Willow Harp",			15,	1,	10,		10,	,	,	13,	3,	,	,	,	4,,						,				,				
	352,"Yew Harp",				15,	1,	20,		10,	,	,	18,	4,	,	,	,	3,,						,				,				
	353,"Copper Harp",			15,	2,	40,		10,	,	,	23,	5,	,	,	,	2,,						,				,				
	354,"Brass Harp",			15,	2,	80,		10,	,	,	28,	6,	,	,	0,	1,,						,				,				
	356,"Maple Harp*",			15,	1,	50,		10,	,	,	32,	7,	,	,	,	1,	,						,				,				
	357,"Cedar Harp*",			15,	1,	50,		10,	,	,	38,	8,	,	,	,	1,	,						,				,				
	358,"Brass Harp*",			15,	2,	50,		10,	,	,	43,	9,	,	,	,	1,	,						,				,				
	359,"Cherry Harp*",			15,	5,	50,		10,	,	,	48,	10,	,	,	,	1,	,						,				,				
	360,"Apprentice Harp**",	15,	1,	100,	20,	,	,	58,	12,	,	,	,	100.25,,						,				,				
	361,"Desert Harp",			15,	2,	350,	10,	,	,	53,	11,	,	,	,	,	,						,				,				
	362,"Adept Harp***",		15,	4,	1000,	40,	,	,	98,	20,	,	,	,	,	,						,				,				

;Archer Bows
	400,"Oak Shortbow",			14,	1,	5,		10,	,	,	3,	9,	,	,	,	5,,						,				30.0,			
	401,"Hunter's Shortbow",		14,	2,	10,		10,	,	,	4,	12,	,	,	,	4,,						,				30.0,			
	402,"Light Crossbow",		14,	5,	20,		10,	,	,	5,	15,	,	,	,	3,,						,				30.3,			
	403,"Hunter Crossbow",		14,	5,	40,		10,	,	,	6,	18,	,	,	,	2,,						,				30.3,			
	404,"Composite Bow",			14,	3,	80,		10,	,	,	7,	21,	,	,	,	1,,						,				30.0,			
	405,"Willow Shortbow*",		14,	2,	50,		10,	,	,	8,	24,	,	,	,	1,,						,				30.0,			
	406,"Yew Shortbow*",			14,	2,	50,		10,	,	,	9,	27,	,	,	,	1,	,						,				30.0,			
	407,"Oak Longbow*",			14,	8,	50,		10,	,	,	10,	30,	,	,	,	1,	,						,				30.0,			
	408,Ballista*,				14,	6,	50,		10,	,	,	0,	44,	,	,	,	1,	,						,				30.3,			
	409,"Cedar Shortbow*",		14,	4,	50,		10,	,	,	12,	36,	,	,	,	1,	,						,				30.0,			
	410,"Apprentice Crossbow**",14,	5,	100,	20,	,	,	14,	42,	,	,	,	100.34,,						,				30.3,			
	411,"Desert Bow",			14,	9,	350,	10,	,	,	13,	39,	,	,	,	,	,						,				30.0,			
	412,"Adept Bow***",			14,	8,	500,	40,	,	,	20,	60,	,	,	,	,	,						,				30.0,			

;Archer Quivers
	450,"Crude Arrows",			21,	7.1,5,		10.1008,,	,	,	4,	,	,	,	10,	,						,				,				
	451,"Wooden Arrows",		21,	7.1,10,		10.1008,,	,	,	8,	,	,	,	10,	,						,				,				
	452,"Brass Tipped Arrows",	21,	10.1,15,		10.1008,,	,	,	12,	,	,	,	10,	,						,				,				
	453,"Bronze Tipped Arrows*",21,	10.1,20,		10.1008,,	,	,	16,	,	,	,	8,	,						,				,				
	455,"Iron Tipped Arrows*",	21,	7.1,25,		10.1008,,	,	,	20,	,	,	,	8,	,						,				,				
	456,"Charger Horn Arrows**",21,	8.1,100,	20.1008,,	,	,	28,	,	,	,	100.34,,						,				,				
	457,"Desert Arrows",		21,	10.1,350,	10.1008,,	,	,	24,	,	,	,	,	,						,				,				
	458,"Pion Stinger Arrows***",21,	9.1,500,	40.1008,,	,	,	60,	,	,	,	,	,						,				,				

;Beserker Axes
	500,"Carver Axe",			17,	1,	5,		10,	,	,	-7,	16,	,	,	,	5,	,						,				3,				
	501,Hatchet,					17,	2,	10,		10,	,	,	-11,22,	,	,	,	4,	,						,				3,				
	502,"Brass Battle Axe",		17,	3,	20,		10,	,	,	-15,28,	,	,	,	3,	,						,				3,				
	503,"Copper Battle Axe",		17,	3,	40,		10,	,	,	-19,34,	,	,	,	2,	,						,				3,				
	504,"Brass War Axe",			17,	5,	80,		10,	,	,	-23,40,	,	,	,	1,	,						,				3,				
	505,Minotaur*,				17,	3,	50,		10,	,	,	-27,46,	,	,	,	1,	,						,				3,				
	506,"Bronze Battle Axe*",	17,	3,	50,		10,	,	,	-31,52,	,	,	,	1,	,						,				3,				
	507,"Copper War Axe*",		17,	5,	50,		10,	,	,	-35,58,	,	,	,	1,	,						,				3,				
	508,"Brass Great Axe*",		17,	4,	50,		10,	,	,	-39,64,	,	,	,	1,	,						,				3,				
	509,"Bronze War Axe*",		17,	5,	50,		10,	,	,	-43,70,	,	,	,	1,	,						,				3,				
	510,"Apprentice Minotaur**",17,	6,	100,	20,	,	,	-51,82,	,	,	,	100.33,,						,				3,				
	511,"Desert Great Axe",		17,	4,	350,	10,	,	,	-47,76,	,	,	,	,	,						,				3,				
	512,"Adept Battle Axe***",	17,	3,	500,	40,	,	,	-82,130,,	,	,	,	,						,				3,				

	549,"Legendary Great Axe",	17,	4,	500000,	99,	,	,	-123,190,,	,	,	,	,						,				3,				
;Beserker Helms
	550,"Tinted War Helm",		10,	17,	5,		10.1005,,	,	2,	2,	,	,	,	5,	,						,				,				
	551,"Spiked War Helm",		10,	15,	10,		10.1005,,	,	3,	3,	,	,	,	4,	,						,				,				
	552,"Fanged Helm",			10,	15,	20,		10.1005,,	,	5,	5,	,	,	,	3,	,						,				,				
	553,"Skull Cap",			10,	19,	40,		10.1005,,	,	6,	6,	,	,	,	2,	,						,				,				
	554,"Horned Helm",			10,	16,	80,		10.1005,,	,	8,	8,	,	,	,	1,	,						,				,				
	555,"Battle Mask*",			10,	5,	50,		10.1005,,	,	9,	9,	,	,	,	1,	,						,				,				
	556,"Skull Face*",			10,	5,	50,		10.1005,,	,	11,	11,	,	,	,	1,	,						,				,				
	557,"Winged Helm*",			10,	3.1,50,		10.1005,,	,	12,	12,	,	,	,	1,	,						,				,				
	558,"War Hat*",				10,	16,	50,		10.1005,,	,	14,	14,	,	,	,	1,	,						,				,				
	559,"Wolf Helm*",			10,	1.1,50,		10.1005,,	,	15,	15,	,	,	,	1,	,						,				,				
	560,"Apprentice Avenger**",	10,	15,	100,	20.1005,,	,	18,	18,	,	,	,	100.33,,						,				,				
	561,"Deset Cap",			10,	17,	350,	10.1005,,	,	17,	17,	,	,	,	,	,						,				,				
	562,"Adept War Helm***",	10,	4.1,500,	40.1005,,	,	27,	27,	,	,	,	,	,						,				,				

;Cleric Maces
	600,Cudgel,					18,	1,	5,		10,	,	,	8,	4,	,	,	,	5,	,						,				1,				
	601,"Nailed Wood",			18,	2,	10,		10,	,	,	12,	6,	,	,	,	4,	,						,				1,				
	602,"Spiked Club",			18, 2,	20,		10,	,	,	16,	8,	,	,	,	3,	,						,				1,
	603,"Metal Club",			18,	3,	40,		10,	,	,	20,	10,	,	,	,	2,	,						,				1,				
	604,"Crude Flail",			18,	5,	80,		10,	,	,	24,	12,	,	,	,	1,	,						,				1,				
	605,"Morning Star*",			18,	4,	50,		10,	,	,	28,	14,	,	,	,	1,	,						,				1,				
	606,"Noon Star*",			18,	4,	50,		10,	,	,	32,	16,	,	,	,	1,	,						,				1,				
	607,"Night Star*",			18,	4,	50,		10,	,	,	36,	18,	,	,	,	1,	,						,				1,				
	608,"War Club*",				18,	2,	50,		10,	,	,	30,	30,	,	,	,	1,	,						,				1,				
	609,"Copper Flail*",			18,	5,	50,		10,	,	,	44,	22,	,	,	,	1,	,						,				1,				
	610,"Apprentice Star**",	18,	4,	100,	20,	,	,	52,	26,	,	,	,	100.29,,						,				1,				
	611,"Desert Flail",			18,	5,	350,	10,	,	,	48,	24,	,	,	,	,	,						,				1,				
	612,"Adept Hammer***",		18,	6,	1000,	40,	,	,	84,	42,	,	,	,	,	,						,				1,				

;Helmets
	650,"Brass Circlet",		10,	5.1,5,		10,	,	,	5,	,	,	,	,	5,	,						,				,				
	651,"Brass Coronet",		10,	6.1,15,		10,	,	,	7,	,	,	,	,	4,	,						,				,				
	652,"Brass Full Helm",		10,	4,	25,		10.1000,,	,	11,	,	,	,	,	3,	,						,				,				
	653,"Brass Diadem",			10,	7.1,20,		10,	,	,	9,	,	,	,	,	2,	,						,				,				
	654,"War Face",				10,	5,	35,		10,	,	,	9,	2,	,	,	,	1,	,						,				,				
	655,Crown,					10,	18,	50,		10.1000,,	,	14,	,	,	,	,	1,	,						,				,				
	656,Casque,					10,	7,	75,		10.1000,,	,	19,	,	,	,	,	1,	,						,				,				
	657,"Copper Helm",			10,	4,	40,		10,	,	,	13,	,	,	,	,	1,	,						,				,				
	658,"Battle Helm",			10,	12,	85,		10.1000,,	,	17,	4,	,	,	,	1,	,						,				,				
	659,"Face Guard",			10,	10,	80,		10.1007,,	,	14,	3,	,	,	,	1,	,						,				,				
	660,"Iron Casque*",			10,	7,	50,		10.1000,,	,	19,	5,	,	,	,	1,	,						,				,				
	661,"War Horns*",			10,	8,	50,		10.1007,,	,	16,	4,	,	,	,	1,	,						,				,				
	662,"Desert Coronet",		10,	6.1,350,	10,	,	,	16,	,	,	,	,	,	,						,				,				
	663,"Desert Guard",			10,	10,	350,	10.1007,,	,	18,	4,	,	,	,	,	,						,				,				
	664,"Desert Full Helm",		10,	9.0,350,	10.1000,,	,	21,	5,	,	,	,	,	,						,				,				

;Armor
	700,"Leather Vest",			11,	5,	5,		10,	,	,	6,	,	,	,	,	5,	,						,				,				
	701,"Hard Leather",			11,	9,	15,		10,	,	,	8,	,	,	,	,	4,	,						,				,				
	702,"Breast Plate",			11,	1.2,30,		10.1000,,	,	15,	,	,	,	,	3,	,						,				,				
	703,"Studded Leather",		11,	1,	25,		10,	,	,	11,	,	,	,	,	2,	,						,				,				
	704,"Chain Garment",		11,	0.1,35,		10.1007,,	,	9,	4,	,	,	,	1,	,						,				,				
	705,"Crude Plate Armor",	11,	4.2,50,		10.1000,,	,	19,	,	,	,	,	1,	,						,				,				
	706,"Woven Armor",			11,	18,	40,		10.0,,	,	13,	,	,	,	,	1,	,						,				,				
	707,"Iron Plate",			11,	12.2,110,	10.1000,,	,	23,	,	,	,	,	1,	,						,				,				
	708,"Hawk Armor",			11,	3.1,50,		10.1007,,	,	13,	3,	,	,	,	1,	,						,				,				
	709,"Splint Mail",			11,	7.2,135,	10.1000,,	,	28,	3,	,	,	,	1,	,						,				,				
	710,"Falcon Armor*",		11,	16.1,50,		10.1007,,	,	17,	5,	,	,	,	1,	,						,				,				
	711,"Leather Armor*",		11,	12,	50,		10,	,	,	17,	2,	,	,	,	1,	,						,				,				
	712,"Blood Armor [Light]",	11,	0.3,200,	10,	,	,	15,	10,	,	,	,	,	,						,				,				
	713,"Blood Armor [Medium]",	11,	1.3,200,	10.1007,,	,	25,	20,	,	,	,	,	,						,				,				
	714,"Blood Armor [Heavy]",	11,	2.3,200,	10.1000,,	,	35,	15,	,	,	,	,	,						,				,				
	715,"Desert Vest",			11,	5,	350,	10,	,	,	20,	1,	,	,	,	,	,						,				,				

	716,"Desert Mail",			11,	4.1,350,	10.1007,,	,	18,	6,	,	,	,	,	,						,				,				
	717,"Desert Plate",			11,	13.2,350,	10.1000,,	,	30,	7,	,	,	,	,	,						,				,				
	718,"Bone Armor [Light]",	11,	3.3,250,	10,	,	,	45,	10,	,	,	,	,	,						,				,				
	719,"Bone Armor [Medium]",	11,	4.3,250,	10.1007,,	,	55,	20,	,	,	,	,	,						,				,				
	720,"Bone Armor [Heavy]",	11,	5.3,250,	10.1000,,	,	65,	15,	,	,	,	,	,						,				,				


;belts
	750,"Leather Sash",			20,	4,	5,		10,	,	,	4,	,	,	,	,	5,	,						,				,				
	751,Belt,					20,	4,	20,		10,	,	,	6,	,	,	,	,	4,	,						,				,				
	752,"Blade Belt",			20,	6,	45,		10.1007,,	,	-4,	10,	,	,	,	3,	,						,				,				
	753,"Leather Belt",			20,	3,	35,		10,	,	,	9,	,	,	,	,	2,	,						,				,				
	754,"Blade Guard",			20,	7,	50,		10.1000,,	,	13,	1,	,	,	,	1,	,						,				,				
	755,"Scale Belt",			20,	2,	60,		10,	,	,	11,	,	,	,	,	1,	,						,				,				
	756,"Big Belt",				20,	5,	45,		10,	,	,	14,	-2,	,	,	,	1,	,						,				,				
	757,"Plated Belt",			20,	7,	70,		10.1000,,	,	16,	2,	,	,	,	1,	,						,				,				
	758,"Metal Thread Belt",	20,	2,	1400,	10.0,,	,	22,	8,	,	,	,	0,	,						,				,				
	759,"Black Belt",			20,	6,	60,		10.1007,,	,	8,	4,	,	,	,	1,	,						,				,				
	760,"Camo Belt*",			20,	8,	50,		10,	0.11,7,	5,	,	,	,	,	1,	,						,				,				
	761,"Robe Sash*",			20,	1,	50,		10,	,	,	15,	2,	,	,	,	,	,						,				,				
	762,"Desert Belt",			20,	4,	350,	10,	,	,	18,	10,	,	,	,	,	,						,				,				

;gloves
	800,"Leather Gloves",		22,	7,	5,		10,	,	,	2,	1,	,	,	,	5,	,						,				,				
	801,"Battle Bracers",		22,	1,	30,		10.0,,	,	3,	4,	,	,	,	4,	,						,				,				
	802,"Studded Leather Gloves",22,	6,	25,		10,	,	,	4,	1,	,	,	,	3,	,						,				,				
	803,"Sword Guards",			22,	3,	45,		10.1000,0.11,,	6,	2,	,	,	,	2,	,						,				,				
	804,"Leather War Gloves",	22,	6,	35,		10.1005,,	,	-2,	7,	,	,	,	1,	,						,				,				
	805,"Leather Bracers",		22,	1,	10,		10,	,	,	-1,	3,	,	,	,	2,	,						,				,				
	806,"Light Gaunlets",		22,	5,	70,		10.1007,,	,	8,	3,	,	,	,	1,	,						,				,				
	807,"Necro Hand",			22,	4,	70,		10.1100,,	4,	3,	8,	,	,	,	1,	,						,				,				
	808,"Fortune Fist",			22,	9,	100,	10,	,	,	-1,	-1,	,	,	,	0,	"The label says they are lucky..",,				,				
	809,"Heavy Guantlets",		22,	"10.Frame #9",60,		10.1000,,	,	17,	-1,	,	,	,	1,	,						,				,				
	810,"Fortune Gloves*",		22,	11,	50,		10,	,	,	2,	2,	,	,	,	1,	"The label says they are lucky..",,				,				
	811,"Holy Fists*",			22,	9,	50,		10,	,	,	30,	-10,,	,	,	1,	,						,				,				
	812,"Desert Chain Bracers",	22,	3,	350,	10,	,	,	18,	,	,	,	,	,	,						,				,				

;boots
	850,"Leather Shoes",		23,	11,	5,		10,	,	,	3,	,	,	,	,	5,	,						,				,				
	851,"Dancer's Boots",		23,	12,	20,		10.1006,0.12,,	2,	2,	,	,	,	4,	,						,				,				
	852,"Charger's Boots",		23,	10,	30,		10.1007,,	,	2,	4,	,	,	,	3,	,						,				,				
	853,"Plate Boots",			23,	13,	40,		10.1000,,	,	8,	,	,	,	,	2,	,						,				,				
	854,"Leather Boots",		23,	11,	30,		10,	,	,	5,	,	,	,	,	1,	,						,				,				
	855,Greaves,				23,	13,	70,		10.1000,,	,	12,	1,	,	,	,	1,	,						,				,				
	856,"Chain Boots",			23,	2,	40,		10,	,	,	7,	,	,	,	,	1,	,						,				,				
	857,"Green Boots",			23,	10,	800,	10,	0.12,3,	4,	4,	,	,	,	0,	"They are green.. Why not buy them?",,				,				
	858,"Mesh Boots",			23,	4,	45,		10.1007,,	,	3,	5,	,	,	,	1,	,						,				,				
	859,"Running Shoes",		23,	1,	35,		10,	0.12,,	-10,5,	,	,	,	,	,						,				,				
	860,"Woven Boots*",			23,	6,	50,		10,	,	,	9,	1,	,	,	,	1,	,						,				,				
	861,"Heavy Greaves*",		23,	"13.Frame #11",60,		10.1000,,	,	14,	,	,	,	,	1,	,						,				,				
	862,"Desert Greaves",		23,	14,	350,	10.1000,,	,	19,	1,	,	,	,	,	,						,				,				
	863,"Desert Booties",		23,	3,	,		30,	,	,	4,	7,	,	,	,	,	,						,				,				

;Necro weps
	900,"Stored Remains",		19,	1,	5,		10,	,	,	,	5,	,	,	,	5,	,						,				,				
	901,"Skull Totem",			19,	3,	10,		10,	,	,	,	8,	,	,	,	4,	,						,				,				
	902,"Zombie Head",			19,	2,	20,		10,	,	,	,	11,	,	,	,	3,	,						,				,				
	903,"Demon Head",			19,	2,	40,		10,	,	,	,	13,	,	,	,	2,	,						,				,				
	904,"Beast Head",			19,	5,	80,		10,	,	,	,	16,	,	,	,	1,	,						,				,				
	905,"Shrunken Head*",		19,	1,	50,		10,	,	,	,	19,	,	,	,	1,	,						,				,				
	906,"Devil Flea Skull*",		19,	4,	50,		10,	,	,	,	22,	,	,	,	1.11,,						,				,				
	907,"Mutated Head*",			19,	2,	50,		10,	,	,	,	25,	,	,	,	1,	,						,				,				
	908,"Demonic Totem*",		19,	5,	50,		10,	,	,	,	28,	,	,	,	1,	,						,				,				
	909,"Beast Totem*",			19,	2,	50,		10,	,	,	,	31,	,	,	,	1,	,						,				,				
	910,"Apprentice Totem**",	19,	4,	100,	20,	,	,	,	37,	,	,	,	100.26,,						,				,				
	911,"Desert Skull",			19,	3,	350,	10,	,	,	,	34,	,	,	,	,	,						,				,				
	912,"Adept Beast Head***",	19,	5,	1000,	40,	,	,	,	61,	,	,	,	,	,						,				,				

;MAGE WANDS!!
	950,Stick,					13,	7,	5,		10,	,	,	2,	2,	,	,	,	5,	,						,				,				
	951,"Broken Wand",			13,	1,	10,		10,	,	,	4,	4,	,	,	,	4,	,						,				,				
	952,"Beating Stick",		13,	7,	20,		10,	,	,	6,	6,	,	,	,	3,	,						,				,				
	953,"Broken Bone",			13,	2,	40,		10,	,	,	8,	8,	,	,	,	2,	,						,				,				
	954,"Totemic Wand",			13,	6,	80,		10,	,	,	10,	10,	,	,	,	1,	,						,				,				
	955,"Bone Wand*",			13,	2,	60,		10,	,	,	12,	12,	,	,	,	1,	,						,				,				
	956,"Fixed Wand*",			13,	1,	60,		10,	,	,	14,	14,	,	,	,	1,	,						,				,				
	957,"Worship Stick*",		13,	3,	60,		10,	,	,	16,	16,	,	,	,	1,	,						,				,				
	958,"Mada's Arm*",			13,	4,	60,		10,	,	,	18,	18,	,	,	,	1,	,						,				,				
	959,"Atled's Wand*",			13,	1,	60,		10,	,	,	20,	20,	,	,	,	1,	,						,				,				
	960,"Apprentice Wand**",	13,	4,	100,	20,	,	,	24,	24,	,	,	,	100.30,,						,				,				
	961,"Desert Wand",			13,	3,	350,	10,	,	,	22,	22,	,	,	,	,	,						,				,				
	962,"Adept Bone***",		13,	4,	1000,	40,	,	,	40,	40,	,	,	,	,	,						,				,				

;Books
	1400,"Holy Book",			21,	2.1,,		10.1004,,	,	4,	,	,	,	,	,	"This book has 1 page.",,				,				
	1401,"Holy Book",			21,	2.1,	,		10.1004,,	,	10,	,	,	,	,	,	"This book has 4 pages.",,				,				
	1402,"Holy Book",			21,	2.1,	,		10.1004,,	,	17,	,	,	,	,	,	"This book has 10 pages.",,				,				
	1403,"Holy Book",			21,	2.1,	,		10.1004,,	,	25,	,	,	,	,	,	"This book has 19 pages.",,				,				
	1404,"Holy Book",			21,	2.1,	,		10.1004,,	,	34,	,	,	,	,	,	"This book has 31 pages.",,				,				
	1405,"Holy Book",			21,	2.1,	,		10.1004,,	,	44,	,	,	,	,	,	"This book has 46 pages.",,				,				
	1406,"Holy Book",			21,	2.1,	,		10.1004,,	,	55,	,	,	,	,	,	"This book has 64 pages.",,				,				
	1407,"Holy Book",			21,	2.1,	,		10.1004,,	,	71,	,	,	,	,	,	"This book has 85 pages.",,				,				
	1408,"Holy Book",			21,	2.1,	,		10.1004,,	,	88,	,	,	,	,	,	"This book has 109 pages.",,				,				
	1409,"Holy Book",			21,	2.1,	,		10.1004,,	,	107,,	,	,	,	,	"This book has 136 pages.",,				,				
	1420,Tome,					21,	0.1,	,		10.1003,,	4,	0,	4,	,	,	,	,	"This book has 1 page.",,				,				
	1421,Tome,					21,	0.1,	,		10.1003,,	4,	0,	10,	,	,	,	,	"This book has 4 pages.",,				,				
	1422,"Tome",			21,	0.1,	,		10.1003,,	4,	0,	17,	,	,	,	,	"This book has 10 pages.",,				,				
	1423,"Tome",			21,	0.1,	,		10.1003,,	4,	0,	25,	,	,	,	,	"This book has 19 pages.",,				,				
	1424,"Tome",			21,	0.1,	,		10.1003,,	4,	0,	34,	,	,	,	,	"This book has 31 pages.",,				,				
	1425,"Tome",			21,	0.1,	,		10.1003,,	4,	0,	44,	,	,	,	,	"This book has 46 pages.",,				,				
	1426,"Tome",			21,	0.1,	,		10.1003,,	4,	0,	55,	,	,	,	,	"This book has 64 pages.",,				,				
	1427,"Tome",			21,	0.1,	,		10.1003,,	4,	0,	71,	,	,	,	,	"This book has 85 pages.",,				,				
	1428,"Tome",			21,	0.1,	,		10.1003,,	4,	0,	88,	,	,	,	,	"This book has 109 pages.",,				,				
	1429,"Tome",			21,	0.1,	,		10.1003,,	4,	0,107,	,	,	,	,	"This book has 136 pages.",,				,				
	1430,Spellbook,				21,1.1,	,		10.1002,,	,	2,	2,	,	,	,	,	"This book has 1 page.",,				,				
	1431,"Spellbook",			21,	1.1,	,		10.1002,,	,	5,	5,	,	,	,	,	"This book has 4 pages.",,				,				
	1432,"Spellbook",			21,	1.1,	,		10.1002,,	,	9,	9,	,	,	,	,	"This book has 10 pages.",,				,				
	1433,"Spellbook",			21,	1.1,	,		10.1002,,	,	12,	12,	,	,	,	,	"This book has 19 pages.",,				,				
	1434,"Spellbook",			21,	1.1,	,		10.1002,,	,	17,	17,	,	,	,	,	"This book has 31 pages.",,				,				
	1435,"Spellbook",			21,	1.1,	,		10.1002,,	,	22,	22,	,	,	,	,	"This book has 46 pages.",,				,				
	1436,"Spellbook",			21,	1.1,	,		10.1002,,	,	27,	27,	,	,	,	,	"This book has 64 pages.",,				,				
	1437,"Spellbook",			21,	1.1,	,		10.1002,,	,	35,	35,	,	,	,	,	"This book has 85 pages.",,				,				
	1438,"Spellbook",			21,	1.1,	,		10.1002,,	,	44,	44,	,	,	,	,	"This book has 109 pages.",,				,				
	1439,"Spellbook",			21,	1.1,	,		10.1002,,	,	54, 54,	,	,	,	,	"This book has 136 pages.",,				,				



;Zeker Fighting Styles
	1500,"Offensive Style [Lvl. 1]",21,	6.1,,		10.1005,,	,	,	4,	,	,	,	,	,						,				,				
	1501,"Offensive Style [Lvl. 2]",21,	6.1,,		10.1005,,	,	,	8,	,	,	,	,	,						,				,				
	1502,"Offensive Style [Lvl. 3]",21,	6.1,,		10.1005,,	,	,	16,	,	,	,	,	,						,				,				
	1503,"Offensive Style [Lvl. 4]",21,	6.1,,		10.1005,,	,	,	32,	,	,	,	,	,						,				,				
	1504,"Offensive Style [Lvl. 5]",21,	6.1,,		10.1005,,	,	,	48,	,	,	,	,	,						,				,				
	1505,"Offensive Style [Lvl. 6]",21,	6.1,,		10.1005,,	,	,	64,	,	,	,	,	,						,				,				
	1506,"Offensive Style [Lvl. 7]",21,	6.1,,		10.1005,,	,	,	80,	,	,	,	,	,						,				,				
	1507,"Offensive Style [Lvl. 8]",21,	6.1,,		10.1005,0.12,,	,	96,	,	,	,	,	,						,				,				
	1508,"Offensive Style [Lvl. 9]",21,	6.1,,		10.1005,0.12,,	,	112,,	,	,	,	,						,				,				
	1509,"Offensive Style [Lvl. MAX]",21,	6.1,,		10.1005,0.12,,	,	128,,	,	,	,	,						,				,				
	1510,"Calm Style [Lvl. 1]",	21,	4.1,,		10.1005,,	,	2,	2,	,	,	,	,	,						,				,				
	1511,"Calm Style [Lvl. 2]",	21,	4.1,,		10.1005,,	,	4,	4,	,	,	,	,	,						,				,				
	1512,"Calm Style [Lvl. 3]",	21,	4.1,,		10.1005,,	,	8,	8,	,	,	,	,	,						,				,				
	1513,"Calm Style [Lvl. 4]",	21,	4.1,,		10.1005,,	,	16,	16,	,	,	,	,	,						,				,				
	1514,"Calm Style [Lvl. 5]",	21,	4.1,,		10.1005,,	,	24,	24,	,	,	,	,	,						,				,				
	1515,"Calm Style [Lvl. 6]",	21,	4.1,,		10.1005,,	,	32,	32,	,	,	,	,	,						,				,				
	1516,"Calm Style [Lvl. 7]",	21,	4.1,,		10.1005,,	,	40,	40,	,	,	,	,	,						,				,				
	1517,"Calm Style [Lvl. 8]",	21,	4.1,,		10.1005,,	6,	48,	48,	,	,	,	,	,						,				,				
	1518,"Calm Style [Lvl. 9]",	21,	4.1,,		10.1005,,	6,	56,	56,	,	,	,	,	,						,				,				
	1519,"Calm Style [Lvl. MAX]",21,	4.1,,		10.1005,,	6,	64,	64,	,	,	,	,	,						,				,				
	1520,"Defensive Style [Lvl. 1]",21,	5.1,,		10.1005,,	,	4,	,	,	,	,	,	,						,				,				
	1521,"Defensive Style [Lvl. 2]",21,	5.1,,		10.1005,,	,	8,	,	,	,	,	,	,						,				,				
	1522,"Defensive Style [Lvl. 3]",21,	5.1,,		10.1005,,	,	16,	,	,	,	,	,	,						,				,				
	1523,"Defensive Style [Lvl. 4]",21,	5.1,,		10.1005,,	,	32,	,	,	,	,	,	,						,				,				
	1524,"Defensive Style [Lvl. 5]",21,	5.1,,		10.1005,,	,	48,	,	,	,	,	,	,						,				,				
	1525,"Defensive Style [Lvl. 6]",21,	5.1,,		10.1005,,	,	64,	,	,	,	,	,	,						,				,				
	1526,"Defensive Style [Lvl. 7]",21,	5.1,,		10.1005,,	,	80,	,	,	,	,	,	,						,				,				
	1527,"Defensive Style [Lvl. 8]",21,	5.1,,		10.1005,0.11,,	96,	,	,	,	,	,	,						,				,				
	1528,"Defensive Style [Lvl. 9]",21,	5.1,,		10.1005,0.11,,	112,,	,	,	,	,	,						,				,				
	1529,"Defensive Style [Lvl. MAX]",21,	5.1,,		10.1005,0.11,,	128,,	,	,	,	,	,						,				,				


;Crafted Items
	2000,"Sword [Low]",			12,	2,	0,		10,	,	,	9,	18,	,	,	,	-1,	,						,				1,				
	2001,"Wand [Low]",			13,	4,	0,		10,	,	,	6,	6,	,	,	,	-1,	,						,				,				
	2002,"Crossbow [Low]",		14,	7,	0,		10,	,	,	5,	15,	,	,	,	-1,	,						,				30.3,			
	2003,"Harp [Low]",			15,	1,	0,		10,	,	,	23,	5,	,	,	,	-1,	,						,				,				
	2004,"Shard [Low]",			16,	3,	0,		10,	,	,	,	22,	,	,	,	-1,	,						,				5,				
	2005,"War Axe [Low]",		17,	5,	0,		10,	,	,	-12,28,	,	,	,	-1,	,						,				3,				
	2006,"Flail [Low]",			18,	5,	0,		10,	,	,	16,	8,	,	,	,	-1,	,						,				1,				
	2007,"Totem [Low]",			19,	3,	0,		10,	,	,	,	11,	,	,	,	-1,	,						,				,				
	2008,"Sword [Min]",			12,	2,	0,		10,	,	,	17,	34,	,	,	,	-1,	,						,				1,				
	2009,"Wand [Min]",			13,	4,	0,		10,	,	,	14,	14,	,	,	,	-1,	,						,				,				
	2010,"Crossbow [Min]",		14,	7,	0,		10,	,	,	10,	30,	,	,	,	-1,	,						,				30.3,			
	2011,"Harp [Min]",			15,	1,	0,		10,	,	,	38,	8,	,	,	,	-1,	,						,				,				
	2012,"Shard [Min]",			16,	3,	0,		10,	,	,	,	42,	,	,	,	-1,	,						,				5,				
	2013,"War Axe [Min]",		17,	5,	0,		10,	,	,	-27,58,	,	,	,	-1,	,						,				3,				
	2014,"Flail [Min]",			18,	5,	0,		10,	,	,	36,	18,	,	,	,	-1,	,						,				1,				
	2015,"Totem [Min]",			19,	3,	0,		10,	,	,	,	25,	,	,	,	-1,	,						,				,				
	2016,"Sword [Mid]",			12,	2,	0,		10,	,	,	21,	42,	,	,	,	-1,	,						,				1,				
	2017,"Wand [Mid]",			13,	4,	0,		10,	,	,	20,	20,	,	,	,	-1,	,						,				,				
	2018,"Crossbow [Mid]",		14,	7,	0,		10,	,	,	12,	36,	,	,	,	-1,	,						,				30.3,			
	2019,"Harp [Mid]",			15,	1,	0,		10,	,	,	48,	10,	,	,	,	-1,	,						,				,				
	2020,"Shard [Mid]",			16,	3,	0,		10,	,	,	,	50,	,	,	,	-1,	,						,				5,				
	2021,"War Axe [Mid]",		17,	5,	0,		10,	,	,	-33,70,	,	,	,	-1,	,						,				3,				
	2022,"Flail [Mid]",			18,	5,	0,		10,	,	,	44,	22,	,	,	,	-1,	,						,				1,				
	2023,"Totem [Mid]",			19,	3,	0,		10,	,	,	,	31,	,	,	,	-1,	,						,				,				




2998,
2999,
;Etc stuff
	3000,"Golem Spam Stick",		19,	3,	,		10,	193,,	-10,-10,,	,	,	,	"Now shut the fuck up.",,				,				
3001,
	3002,"Monster #1",			200,4000,	500,	1,	,	,	,	,	,	,	,	,	,						,				,				
	3003,"Monster #2",			200,4001,500,	,	,	,	,	,	,	,	,	,	,						,				,				
	3004,"Monster #3",			200,4002,500,	,	,	,	,	,	,	,	,	,	,						,				,				
	3005,"Monster #4",			200,4003,500,	1,	,	,	,	,	,	,	,	,	,						,				,				
	3006,"Monster #5",			200,4004,500,	,	,	,	,	,	,	,	,	,	,						,				,				
;Rewarded first 100 equipment
	3007,"Ult's Codpiece",		17,	4,	,		70,	,	,	10,	150,,	,	,	,	"It smells like fish...and lotion...and oil...and chicken... Ult?..",,				,				
	3008,"Adam's Face",			10,	9,	,		40,	,	,	45,	45,	,	,	,	,	,						,				,				
	3009,"Moshe's Halo-Breaker",	17,	7,	,		70,	,	,	60,	100,,	,	,	,	"You sure are a good friend to nag me to death about my typing mistakes, jolly good show.",,				,				
	3010,"Ult's Demonic Blade",	12,	13,	,		70,	,	,	-20,180,,	,	,	,	"It's an evil blade for an evil idiot.",,				,				
	3011,"Ryuu's Whack-a-Mole Stick",13,	7,	,		70,	,	,	50,	50,	,	,	,	,	"Probably stolen..",	,				,				

;Tower Items
	4000,"Brass Circlet [Tower]",10,	13,	2,		10,	,	,	16,	,	,	,	,	0.0,,						,				,				
	4001,"Face Guard [Tower]",	10,	10,	2,		10.1007,,	,	18,	5,	,	,	,	0.0,,						,				,				
	4002,"Battle Helm [Tower]",	10,	7,	2,		10.1000,,	,	23,	6,	,	,	,	0.0,,						,				,				
	4003,"Blood Bracers [Tower]",22,	12,	2,		10,	,	,	,	8,	,	,	,	0.0,,						,				,				
	4004,"War Boots [Tower]",	23,	2,	2,		10,	,	,	6,	6,	,	,	,	0.0,,						,				,				
;floor 2
	4005,"Studded Vest [Tower]",	11,	9,	2,		10,	,	,	32,	4,	,	,	0,	0,	,						,				,				
	4006,"Whack Stick [Tower]",	18,	6,	2,		10,	,	,	,	50,	,	,	,	0,	,						,				1,				
	4007,"Lacquered Plate [Tower]",11,	10.2,2,		10.1000,,	,	47,	11,	,	,	,	0,	,						,				,				
	4008,"Hawk Armor [Tower]",	11,	10,	2,		10.1007,,	,	31,	21,	,	,	,	0,	,						,				,				
	4009,"Devil's Harp [Tower]",	15,	5,	2,		10,	,	,	-10,30,	,	,	,	0,	,						,				,				
;floor 3
	4010,"Grand Plated Belt [Tower]",20,	7,	2,		10.1000,,	,	45,	12,	,	,	,	,	,						,				,				
	4011,"Grand Scale Belt [Tower]",20,	2,	2,		10,	,	,	35,	18,	,	,	,	,	,						,				,				
	4012,"Repeating Crossbow [Tower]",14,	7,	2,		10,	,	,	55,	55,	,	,	,	,	,						,				30.3,			
	4013,"Tribal Sheild [Tower]",21,	16.0,2,		10.1000,,	,	75,	10,	,	,	,	,	,						,				,				
	4014,"Studded Blood Bracers [Tower]",22,	12,	2,		10,	,	,	2,	24,	,	,	,	,	,						,				,				
4015,
4016,
4017,
;D minigame items
	4100,"Raider Helmet",		10,	8.1,200,	10.1007,,	,	20,	10,	,	,	,	,	,						,				,				
	4101,"Silver Raider Helmet",	10,	9.1,200,	10.1007,,	,	40,	20,	,	,	,	,	,						,				,				
	4102,"Marauder Armor",		11,	6.3,200,	10.1000,,	,	30,	10,	,	,	,	,	,						,				,				
	4103,"Silver Marauder Armor",11,	7.3,200,	10.1000,,	,	60,	20,	,	,	,	,	,						,				,				
	4104,"Storm Boots",			23,	2,	200,	10,	,	,	8,	8,	,	,	,	,	,						,				,				
	4105,"Silver Storm Boots",	23,	7.0,200,	10,	,	,	16,	16,	,	,	,	,	,						,				,				
	4106,"Wind Gloves",			22,	4,	200,	10,	0.12,,	4,	4,	,	,	,	,	,						,				,				
	4107,"Silver Wind Gloves",	22,	13,	200,	10,	0.12,,	8,	8,	,	,	,	,	,						,				,				
	4108,"Gold Raider Helmet",	10,	10.1,200,	10.1007,,	,	60,	30,	,	,	,	,	,						,				,				
	4109,"Gold Marauder Armor",	11,	8.3,200,	10.1000,,	,	90,	30,	,	,	,	,	,						,				,				
	4110,"Gold Storm Boots",		23,	8,	200,	10,	,	,	24,	24,	,	,	,	,	,						,				,				
	4111,"Gold Wind Gloves",		22,	14,	200,	10,	0.12,,	12,	12,	,	,	,	,	,						,				,				

;Aura Gear
;Holy Shield
	4500,"Newbie Armor",			11,	9.3,,		10,	,	,	5,	1,	,	,	,	,	"[Holy Shield]",		,				,				
	4501,"Lacky Armor",			11,	10.3,,		10,	,	,	11,	2,	,	,	,	,	"[Holy Shield]",		,				,				
	4502,"Novice Armor",			11,	11.3,,		10,	,	,	18,	3,	,	,	,	,	"[Holy Shield]",		,				,				
	4503,"Follower Armor",		11,	12.3,,		10,	,	,	27,	4,	,	,	,	,	"[Holy Shield]",		,				,				
	4504,"Adept Armor",			11,	13.3,,		10,	,	,	37,	5,	,	,	,	,	"[Holy Shield]",		,				,				
	4505,"Disciple Armor",		11,	14.3,,		10,	,	,	48,	6,	,	,	,	,	"[Holy Shield]",		,				,				
4506,
4507,
4508,
4509,
;Holy Blade
	4510,"Newbie Armor",			11,	9.3,,		10,	,	,	5,	1,	,	,	,	,	"[Holy Blade]",		,				,					4511,"Lacky Armor",			11,	10.3,,		10,	,	,	11,	2,	,	,	,	,	"[Holy Blade]",		,				,				
	4512,"Novice Armor",			11,	11.3,,		10,	,	,	18,	3,	,	,	,	,	"[Holy Blade]",		,				,				
	4513,"Follower Armor",		11,	12.3,,		10,	,	,	27,	4,	,	,	,	,	"[Holy Blade]",		,				,				
	4514,"Adept Armor",			11,	13.3,,		10,	,	,	37,	5,	,	,	,	,	"[Holy Blade]",		,				,				
	4515,"Disciple Armor",		11,	14.3,,		10,	,	,	48,	6,	,	,	,	,	"[Holy Blade]",		,				,				
4516,
4517,
4518,
4519,
;Devotion Aura
	4520,"Newbie Armor",			11,	9.3,,		10,	,	,	5,	1,	,	,	,	,	"[Devotion Aura]",		,				,				
	4521,"Lacky Armor",			11,	10.3,,		10,	,	,	11,	2,	,	,	,	,	"[Devotion Aura]",		,				,				
	4522,"Novice Armor",			11,	11.3,,		10,	,	,	18,	3,	,	,	,	,	"[Devotion Aura]",		,				,				
	4523,"Follower Armor",		11,	12.3,,		10,	,	,	27,	4,	,	,	,	,	"[Devotion Aura]",		,				,				
	4524,"Adept Armor",			11,	13.3,,		10,	,	,	37,	5,	,	,	,	,	"[Devotion Aura]",		,				,				
	4525,"Disciple Armor",		11,	14.3,,		10,	,	,	48,	6,	,	,	,	,	"[Devotion Aura]",		,				,				
4526,
4527,
4528,
4529,
;Redemption Aura
	4530,"Newbie Armor",			11,	9.3,,		10,	,	,	5,	1,	,	,	,	,	"[Redemption Aura]",		,				,				
	4531,"Lacky Armor",			11,	10.3,,		10,	,	,	11,	2,	,	,	,	,	"[Redemption Aura]",		,				,				
	4532,"Novice Armor",			11,	11.3,,		10,	,	,	18,	3,	,	,	,	,	"[Redemption Aura]",		,				,				
	4533,"Follower Armor",		11,	12.3,,		10,	,	,	27,	4,	,	,	,	,	"[Redemption Aura]",		,				,				
	4534,"Adept Armor",			11,	13.3,,		10,	,	,	37,	5,	,	,	,	,	"[Redemption Aura]",		,				,				
	4535,"Disciple Armor",		11,	14.3,,		10,	,	,	48,	6,	,	,	,	,	"[Redemption Aura]",	,				,				
4536,
4537,
4538,
4539,
;Peaceful Aura
	4540,"Newbie Armor",			11,	9.3,,		10,	,	,	5,	1,	,	,	,	,	"[Peaceful Aura]",		,				,				
	4541,"Lacky Armor",			11,	10.3,,		10,	,	,	11,	2,	,	,	,	,	"[Peaceful Aura]",		,				,				
	4542,"Novice Armor",			11,	11.3,,		10,	,	,	18,	3,	,	,	,	,	"[Peaceful Aura]",		,				,				
	4543,"Follower Armor",		11,	12.3,,		10,	,	,	27,	4,	,	,	,	,	"[Peaceful Aura]",		,				,				
	4544,"Adept Armor",			11,	13.3,,		10,	,	,	37,	5,	,	,	,	,	"[Peaceful Aura]",		,				,				
	4545,"Disciple Armor",		11,	14.3,,		10,	,	,	48,	6,	,	,	,	,	"[Peaceful Aura]",		,				,				
4546,
4547,
4548,
4549,
;holy shields
	4550,"Holy Shield",			21,	3.1,,		10,	,	,	10,	2,	,	,	,	,	[Newbie],				,				,				
	4551,"Holy Shield",			21,	3.1,,		10,	,	,	20,	4,	,	,	,	,	[Lacky],				,				,				
	4552,"Holy Shield",			21,	3.1,,		10,	,	,	30,	6,	,	,	,	,	[Novice],				,				,				
	4553,"Holy Shield",			21,	3.1,,		10,	,	,	40,	8,	,	,	,	,	[Follower],				,				,				
	4554,"Holy Shield",			21,	3.1,,		10,	,	,	50,	10,	,	,	,	,	[Adept],				,				,				
	4555,"Holy Shield",			21,	3.1,,		10,	,	,	60,	12,	,	,	,	,	[Disciple],				,				,				
	4556,"Holy Shield",			21,	3.1,,		10,	,	,	70,	14,	,	,	,	,	,						,				,				
4557,
4558,
4559,
;holy blades
	4560,"Holy Blade",			12,	12,	,		10,	,	,	2,	14,	,	,	,	,	[Newbie],				,				1,				
	4561,"Holy Blade",			12,	12,	,		10,	,	,	4,	28,	,	,	,	,	[Lacky],				,				1,				
	4562,"Holy Blade",			12,	12,	,		10,	,	,	6,	42,	,	,	,	,	[Novice],				,				1,				
	4563,"Holy Blade",			12,	12,	,		10,	,	,	8,	56,	,	,	,	,	[Follower],				,				1,				
	4564,"Holy Blade",			12,	12,	,		10,	,	,	10,	70,	,	,	,	,	[Adept],				,				1,				
	4565,"Holy Blade",			12,	12,	,		10,	,	,	12,	84,	,	,	,	,	[Disciple],				,				1,				
4566,
4567,
4568,
4569,

;Arhcer Booties
	4600,"Plated Booties",		23,	0.1,,		10,	,	,	3,	3,	,	,	,	,	,						,				,				
	4610,"Plated Booties[Pyro]",	23,	1.1,,		10,	,	1,	7,	7,	,	,	,	,	"Level. 0",				,				,				
	4611,"Plated Booties[Pyro]",	23,	2.1,,		10,	,	1,	12,	12,	,	,	,	,	"Level. 1",				,				,				
	4612,"Plated Booties[Pyro]",	23,	3.1,,		10,	,	1,	18,	18,	,	,	,	,	"Level. 2",				,				,				
	4613,"Plated Booties[Pyro]",	23,	4.1,,		10,	,	1,	25,	25,	,	,	,	,	"Level. 3",				,				,				
	4614,"Plated Booties[Pyro]",	23,	5.1,,		10,	,	1,	32,	32,	,	,	,	,	"Level. 4",				,				,				
	4615,"Plated Booties[Pyro]",	23,	6.1,,		10,	,	1,	40,	40,	,	,	,	,	"Level. 5",				,				,				
4616,
	4620,"Plated Booties[Hydro]",23,	13.1,,		10,	,	5,	7,	7,	,	,	,	,	"Level. 0",				,				,				
	4621,"Plated Booties[Hydro]",23,	14.1,,		10,	,	5,	12,	12,	,	,	,	,	"Level. 1",				,				,				
	4622,"Plated Booties[Hydro]",23,	15.1,,		10,	,	5,	18,	18,	,	,	,	,	"Level. 2",				,				,				
	4623,"Plated Booties[Hydro]",23,	16.1,,		10,	,	5,	25,	25,	,	,	,	,	"Level. 3",				,				,				
	4624,"Plated Booties[Hydro]",23,	17.1,,		10,	,	5,	32,	32,	,	,	,	,	"Level. 4",				,				,				
	4625,"Plated Booties[Hydro]",23,	18.1,,		10,	,	5,	40,	40,	,	,	,	,	"Level. 5",				,				,				
4626,
	4630,"Plated Booties[Geo]",	23,	7.1,,		10,	,	3,	7,	7,	,	,	,	,	"Level. 0",						,				,				
	4631,"Plated Booties[Geo]",	23,	8.1,,		10,	,	3,	12,	12,	,	,	,	,	"Level. 1",						,				,				
	4632,"Plated Booties[Geo]",	23,	9.1,,		10,	,	3,	18,	18,	,	,	,	,	"Level. 2",						,				,				
	4633,"Plated Booties[Geo]",	23,	10.1,,		10,	,	3,	25,	25,	,	,	,	,	"Level. 3",						,				,				
	4634,"Plated Booties[Geo]",	23,	11.1,,		10,	,	3,	32,	32,	,	,	,	,	"Level. 4",						,				,				
	4635,"Plated Booties[Geo]",	23,	12.1,,		10,	,	3,	40,	40,	,	,	,	,	"Level. 5",						,				,				
4636,
	4640,"Plated Booties[Aero]",	23,	1.2,,		10,	,	7,	7,	7,	,	,	,	,	"Level. 0",						,				,				
	4641,"Plated Booties[Aero]",	23,	2.2,,		10,	,	7,	12,	12,	,	,	,	,	"Level. 1",						,				,				
	4642,"Plated Booties[Aero]",	23,	3.2,,		10,	,	7,	18,	18,	,	,	,	,	"Level. 2",						,				,				
	4643,"Plated Booties[Aero]",	23,	4.2,,		10,	,	7,	25,	25,	,	,	,	,	"Level. 3",						,				,				
	4644,"Plated Booties[Aero]",	23,	5.2,,		10,	,	7,	32,	32,	,	,	,	,	"Level. 4",						,				,				
	4645,"Plated Booties[Aero]",	23,	6.2,,		10,	,	7,	40,	40,	,	,	,	,	"Level. 5",						,				,				
4646,
;Fencer Gauntlets
	4700,"Plain Leather Gauntlets",22,	19,	,		10.1001,,	,	4,	1,	,	,	,	,	,						,				,				
	4701,"Leather Gauntlets",	22,	19,	,		10.1001,,	,	8,	2,	,	,	,	,	,						,				,				
	4702,"Bronze Chain Gauntlets",22,	17,	,		10.1001,,	,	12,	3,	,	,	,	,	,						,				,				
	4703,"Iron Chain Gauntlets",	22,	17,	,		10.1001,,	,	16,	4,	,	,	,	,	,						,				,				
	4704,"Bronze Gauntlet",		22,	15,	,		10.1001,,	,	20,	5,	,	,	,	,	,						,				,				
	4705,"Iron Gauntlet",		22,	15,	,		10.1001,,	,	24,	6,	,	,	,	,	,						,				,				
	4706,"Bronze Trimmed Gauntlets",22,	16,	,		10.1001,,	,	28,	7,	,	,	,	,	,						,				,				
	4707,"Iron Trimmed Gauntlets",22,	16,	,		10.1001,,	,	32,	8,	,	,	,	,	,						,				,				
	4708,"Dragon Leather Gauntlets",22,	18,	,		10.1001,,	,	36,	9,	,	,	,	,	,						,				,				
	4709,"Studded Dragon Leather Gauntlets",22,	18,	,		10.1001,,	,	40,	10,	,	,	,	,	,						,				,				


;Special Items
	5000,"Camo Boots",			23,	9,	20,		10,	0.11,7,	4,	4,	,	,	,	,	"Where are they?",		,				,				
	5001,"Camo Armor",			11,	18.1,20,		10,	0.11,7,	15,	4,	,	,	,	,	"It's like it was never there..",,				,				
	5002,"Jeweled Crown",		10,	18,	20,		10.1000,0.12,7,	25,	5,	,	,	,	,	,						,				,				
	5003,"Green Chain Boots",	23,	10,	20,		10.1007,,	3,	5,	5,	,	,	,	0,	"Nice and green..",		,				,				
	5004,"Titan's Blade",		12,	8,	20,		10,	,	3,	5,	50,	,	,	,	0,	"It's freaking huge.",	,				1,				
	5005,"Holy Star",			18,	4,	20,		10,	247,,	50,	,	,	,	,	0,	,						,				1,				
	5006,"Plain Harp",			15,	1,	20,		10,	205,2,	1,	1,	,	,	,	0,	"Nothing Special?",		,				,				
	5007,"Light Plate",			11,	10.1,20,		10,	,	6,	30,	4,	,	,	,	0,	,						,				,				


	5099,"Froggie Feet",			23,	10,	2,		10,	0.0,5,	0,	0,	,	,	,	100.29,,						,				,				
	5100,"Light Boots [Race]",	23,	2,	30,		10,	0.12,,	5,	5,	,	,	,	0,	,						,				,				
	5101,"Light Cap [Race]",		10,	19,	30,		10,	0.12,6,	14,	,	,	,	,	0,	,						,				,				
	5102,"Battle Gauntlets [Battle]",22,	5,	30,		10.1000,,	,	16,	4,	,	,	,	,	,						,				,				
	5103,"Battle Vest [Battle]",	11,	4,	30,		10,	,	,	16,	10,	,	,	,	,	,						,				,				
	5104,"Scarred Buckler [Complete]",21,	7,	30,		10.1001,,	,	15,	18,	,	,	,	,	,						,				,				
	5105,"Scarred Belt [Complete]",20,	2,	30,		10,	,	,	21,	6,	,	,	,	,	,						,				,				
	5106,"Scarred Ward [Complete]",21,	13,	30,		10.1000,,	,	56,	,	,	,	,	,	,						,				,				
	5107,"Scarred Bone [Complete",13,	2,	30,		10,	23,	,	17,	17,	,	,	,	,	,						,				,				
	5108,"Scarred Visor [Complete]",10,	3,	30,		10.1007,,	,	23,	7,	,	,	,	,	,						,				,				
	5109,"Scarred Slippers [Complete]",23,	1,	30,		10,	,	,	12,	3,	,	,	,	,	,						,				,				
	5110,"Running Booties[Secret]",23,	4,	,		,	0.12,,	10,	10,	,	,	,	,	,						,				,				
	5119,"Theif Hunter Robe",	11,	19,	,		10,	,	,	150,30,	,	,	,	,	,						,				,				
;
; Be sure to leave a blank line at the end of this file

