;-=-=-=-=-=-=-=-=-=-=-=-=-=-=-=-=-=-=-=-=-=-=-=-=-=-=-=-=-=-=-=-=-=-=-=-=-=-=-=-=-=-=-=-=-=-=-=-=-=-=-=-=-=-=-=-=-=-=-=-=-=-=
; SPELLS
;-=-=-=-=-=-=-=-=-=-=-=-=-=-=-=-=-=-=-=-=-=-=-=-=-=-=-=-=-=-=-=-=-=-=-=-=-=-=-=-=-=-=-=-=-=-=-=-=-=-=-=-=-=-=-=-=-=-=-=-=-=-=
;						-1			RESURRECTION		(brings dead to life, with 1 HP)
;						-2			DISEASE_POISON		(Makes HP restores ineffective)		
;						-3			DISEASE_SAP			(Makes Spells cost more MP to cast)		
;						-4			DISEASE_STUN		(cannot move, or attack)
;						-5			DISEASE_GAG			(cannot case spells)(* wears off)		
;						-6			DISEASE_NUMB		(cannot use right-hand)(* wears off)
;						-7			DISEASE_SLEEP		(cannot move, or attack)(* wears off)	
;						-8			DISEASE_CONFUSE		(attacks may hit friends)(* wears off)	
;						-9			DISEASE_CHARM		(once charmed, monster fights for you)	
;						-10			DISEASE_TAME		(taming a charmed monster makes it a pet)(NOT IMPLEMENTED YET)	
;						-11			DISEASE_FREEZE		(cannot move)
;						-20			DISEASE_STRENGTH	(lowers strenth til end of scene) (cure raises it)
;						-21			DISEASE_WISDOM		(lowers wisdom til end of scene) (cure raises it)	
;						-22			DISEASE_STAMINA		(lowers stamina til end of scene) (cure raises it)	
;						-23			DISEASE_AGILITY		(lowers agility til end of scene) (cure raises it)
;						-24			DISEASE_DEXTERITY	(lowers dexterity til end of scene) (cure raises it)	
;						-200		SUMMON_SAME			Summon a monster of same type as caster
;						-201		SUMMON_SAME_ELEMENT	Summon a monster of the same element as caster
;						-202		SUMMON_RANDOM		Summon a random monster at or below level of caster (within 10 levels)
;						-203		SUMMON_SPECIFIC		Summon a specific monster (monster id in optional dotted arg)
;						-300		SUMMON_ITEM			Summon an item to be used on the target (item id in dotteg arg)
;-=-=-=-=-=-=-=-=-=-=-=-=-=-=-=-=-=-=-=-=-=-=-=-=-=-=-=-=-=-=-=-=-=-=-=-=-=-=-=-=-=-=-=-=-=-=-=-=-=-=-=-=-=-=-=-=-=-=-=-=-=-=
;LIGHT
;-=-=-=-=-=-=-=-=-=-=-=-=-=-=-=-=-=-=-=-=-=-=-=-=-=-=-=-=-=-=-=-=-=-=-=-=-=-=-=-=-=-=-=-=-=-=-=-=-=-=-=-=-=-=-=-=-=-=-=-=-=-=
	1,	Cure,				0,	0,	50,	0,	1,		4000000,17,	11,	80,	100,	0,		0,		,			,			,			,	
	2,	Heal,				0,	0,	150,0,	2,		4000000,27,	11,	40,	100,	0,		0,		,			,			,			,	
	3,	"Health Surge",		0,	0,	300,0,	3,		4000000,37,	11,	40,	100,	0,		0,		,			,			,			,	
	4,	"Bless Agility",	0,	0,	-123,0,	4,		4000000,47,	11,	40,	100,	0,		0,		,			,			,			,	
	5,	"Heal All",			0,	0,	500,0,	105,	4000000,57,	11,	40,	100,	0,		0,		,			,			,			,	
	6,	"Health Burst",		0,	0,	750,0,	6,		4000000,67,	11,	55,	100,	0,		0,		,			,			,			,	
	7,	"Heavens Shield",	0,	0,	-122,0,	107,	4000000,77,	11,	55,	100,	0,		0,		,			,			,			,	
	8,	Resurrection,		0,	0,	-1,	0,	8.0.505,4000000,87,	11,	55,	100,	0,		0,		,			,			,			,	
	9,	Rejuvenation,		0,	0,	3000,0,	9,		4000000,97,	11,	55,	100,	0,		0,		,			,			,			,	
	10,	"Health Explosion",	0,	0,	3000,0,	109,	4000000,98,	11,	55,	100,	0,		0,		,			,			,			,	
;-=-=-=-=-=-=-=-=-=-=-=-=-=-=-=-=-=-=-=-=-=-=-=-=-=-=-=-=-=-=-=-=-=-=-=-=-=-=-=-=-=-=-=-=-=-=-=-=-=-=-=-=-=-=-=-=-=-=-=-=-=-=
;WATER
;-=-=-=-=-=-=-=-=-=-=-=-=-=-=-=-=-=-=-=-=-=-=-=-=-=-=-=-=-=-=-=-=-=-=-=-=-=-=-=-=-=-=-=-=-=-=-=-=-=-=-=-=-=-=-=-=-=-=-=-=-=-=
	11,	"Frost Bolt",		0,	1,	30,	0,	1,		4000000,15,	11,	80,	100,	0,		0,		,			,			,			,	
	12,	"Icey Wave",		0,	1,	50,	0,	2,		4000000,25,	11,	80,	100,	0,		0,		,			,			,			,	
	13,	Freeze,				0,	1,	75,	0,	3,		4000000,35,	11,	80,	100,	0,		0,		,			,			,			,	
	14,	Frozen,				0,	1,	100,0,	104,	4000000,45,	11,	80,	100,	0,		0,		,			,			,			,	
	15,	"Ice Lance",		0,	1,	130,0,	5,		4000000,55,	11,	80,	100,	0,		0,		,			,			,			,	
	16,	"Frost",				0,	1,	175,0,	6,		4000000,65,	11,	80,	100,	0,		0,		,			,			,			,	
	17,	Hail,				0,	1,	200,0,	7,		4000000,75,	11,	80,	100,	0,		0,		,			,			,			,	
	18,	"Ice Storm",		0,	1,	250,0,	8,		4000000,85,	11,	80,	100,	0,		0,		,			,			,			,	
	19,	Blizzard,			0,	1,	300,0,	109,	4000000,95,	11,	80,	100,	0,		0,		,			,			,			,	
;-=-=-=-=-=-=-=-=-=-=-=-=-=-=-=-=-=-=-=-=-=-=-=-=-=-=-=-=-=-=-=-=-=-=-=-=-=-=-=-=-=-=-=-=-=-=-=-=-=-=-=-=-=-=-=-=-=-=-=-=-=-=
;NATURE
;-=-=-=-=-=-=-=-=-=-=-=-=-=-=-=-=-=-=-=-=-=-=-=-=-=-=-=-=-=-=-=-=-=-=-=-=-=-=-=-=-=-=-=-=-=-=-=-=-=-=-=-=-=-=-=-=-=-=-=-=-=-=
	22,	Paralyze,			0,	2,	-11,0,	1,		4000000,10,	11,	80,	100,	0,		0,		,			,			,			,	
	23,	Poison,				0,	2,	-2,	0,	2,		4000000,20,	11,	80,	100,	0,		0,		,			,			,			,	
	24,	Distract,			0,	2,	-9,	0,	3.0.0.500,4000000,30,	11,	80,	100,	0,		0,		,			,			,			,	
	25,	Capture,			0,	2,	-10,0,	4.0.0.500,4000000,40,	11,	80,	100,	0,		0,		,			,			,			,	
	26,	Roots,				0,	2,	130,0,	5,		4000000,50,	11,	80,	100,	0,		0,		,			,			,			,	
	27,	"Forest Sap",		0,	2,	-3,	0,	6,		4000000,60,	11,	80,	100,	0,		0,		,			,			,			,	
	28,	Vines,				0,	2,	200,0,	7,		4000000,70,	11,	80,	100,	0,		0,		,			,			,			,	
	29,	"Natures Poison",	0,	2,	-2,	0,	108,	4000000,80,	11,	80,	100,	0,		0,		,			,			,			,	
	30,	"Ancient Bark",		0,	2,	300,0,	109,	4000000,90,	11,	80,	100,	0,		0,		,			,			,			,	
;-=-=-=-=-=-=-=-=-=-=-=-=-=-=-=-=-=-=-=-=-=-=-=-=-=-=-=-=-=-=-=-=-=-=-=-=-=-=-=-=-=-=-=-=-=-=-=-=-=-=-=-=-=-=-=-=-=-=-=-=-=-=
;EARTH
;-=-=-=-=-=-=-=-=-=-=-=-=-=-=-=-=-=-=-=-=-=-=-=-=-=-=-=-=-=-=-=-=-=-=-=-=-=-=-=-=-=-=-=-=-=-=-=-=-=-=-=-=-=-=-=-=-=-=-=-=-=-=
	33,	Dirt,				0,	3,	30,	0,	1,		4000000,16,	11,	80,	100,	0,		0,		,			,			,			,	
	34,	Rocks,				0,	3,	50,	0,	2,		4000000,26,	11,	80,	100,	0,		0,		,			,			,			,	
	35,	Boulder,			0,	3,	75,	0,	3,		4000000,36,	11,	80,	100,	0,		0,		,			,			,			,	
	36,	"Earth Shatter",	0,	3,	100,0,	104,	4000000,46,	11,	80,	100,	0,		0,		,			,			,			,	
	37,	Thorns,				0,	3,	130,0,	5,		4000000,56,	11,	80,	100,	0,		0,		,			,			,			,	
	38,	Earthquake,			0,	3,	175,0,	6,		4000000,66,	11,	80,	100,	0,		0,		,			,			,			,	
	39,	"Rolling Boulder",	0,	3,	200,0,	7,		4000000,76,	11,	80,	100,	0,		0,		,			,			,			,	
	40,	"Stone Rush",		0,	3,	250,0,	8,		4000000,86,	11,	80,	100,	0,		0,		,			,			,			,	
	41,	"Earth's Fury",		0,	3,	300,0,	109,	4000000,96,	11,	80,	100,	0,		0,		,			,			,			,	
;-=-=-=-=-=-=-=-=-=-=-=-=-=-=-=-=-=-=-=-=-=-=-=-=-=-=-=-=-=-=-=-=-=-=-=-=-=-=-=-=-=-=-=-=-=-=-=-=-=-=-=-=-=-=-=-=-=-=-=-=-=-=
;DARK
;-=-=-=-=-=-=-=-=-=-=-=-=-=-=-=-=-=-=-=-=-=-=-=-=-=-=-=-=-=-=-=-=-=-=-=-=-=-=-=-=-=-=-=-=-=-=-=-=-=-=-=-=-=-=-=-=-=-=-=-=-=-=
	44,	Shadow,				0,	4,	30,	0,	1,		4000000,11,	11,	80,	100,	0,		0,		,			,			,			,	
	45,	Wraith,				0,	4,	50,	0,	2,		4000000,21,	11,	80,	100,	0,		0,		,			,			,			,	
	46,	"Shadow Bugs",		0,	4,	75,	0,	3,		4000000,31,	11,	80,	100,	0,		0,		,			,			,			,	
	47,	Numb,				0,	4,	-6,	0,	4,		4000000,41,	11,	80,	100,	0,		0,		,			,			,			,	
	48,	Coma,				0,	4,	-7,	0,	5,		4000000,51,	11,	80,	100,	0,		0,		,			,			,			,	
	49,	"Soul Eater",		0,	4,	175,0,	6,		4000000,61,	11,	80,	100,	0,		0,		,			,			,			,	
	50,	"Curse Agility",	0,	4,	-23,0,	7,		4000000,71,	11,	80,	100,	0,		0,		,			,			,			,	
	51,	"Touch of Death",	0,	4,	250,0,	8,		4000000,81,	11,	80,	100,	0,		0,		,			,			,			,	
	52,	"Death's Scythe",	0,	4,	300,0,	109,	4000000,91,	11,	80,	100,	0,		0,		,			,			,			,	
;-=-=-=-=-=-=-=-=-=-=-=-=-=-=-=-=-=-=-=-=-=-=-=-=-=-=-=-=-=-=-=-=-=-=-=-=-=-=-=-=-=-=-=-=-=-=-=-=-=-=-=-=-=-=-=-=-=-=-=-=-=-=
;FIRE
;-=-=-=-=-=-=-=-=-=-=-=-=-=-=-=-=-=-=-=-=-=-=-=-=-=-=-=-=-=-=-=-=-=-=-=-=-=-=-=-=-=-=-=-=-=-=-=-=-=-=-=-=-=-=-=-=-=-=-=-=-=-=
	55,	"Fire Ball",		0,	5,	30,	0,	1,		4000000,14,	11,	80,	100,	0,		0,		,			,			,			,	
	56,	"Fire Chain",		0,	5,	50,	0,	2,		4000000,24,	11,	80,	100,	0,		0,		,			,			,			,	
	57,	Lava,				0,	5,	75,	0,	3,		4000000,34,	11,	80,	100,	0,		0,		,			,			,			,	
	58,	"Molten Rocks",		0,	5,	100,0,	104,	4000000,44,	11,	80,	100,	0,		0,		,			,			,			,	
	59,	"Fire Lance",			0,	5,	130,0,	5,		4000000,54,	11,	80,	100,	0,		0,		,			,			,			,	
	60,	Blaze,				0,	5,	175,0,	6,		4000000,64,	11,	80,	100,	0,		0,		,			,			,			,	
	61,	Flames,				0,	5,	200,0,	7,		4000000,74,	11,	80,	100,	0,		0,		,			,			,			,	
	62,	Inferno,			0,	5,	250,0,	8,		4000000,84,	11,	80,	100,	0,		0,		,			,			,			,	
	63,	"Volcano Eruption",	0,	5,	300,0,	109,	4000000,94,	11,	80,	100,	0,		0,		,			,			,			,	
;-=-=-=-=-=-=-=-=-=-=-=-=-=-=-=-=-=-=-=-=-=-=-=-=-=-=-=-=-=-=-=-=-=-=-=-=-=-=-=-=-=-=-=-=-=-=-=-=-=-=-=-=-=-=-=-=-=-=-=-=-=-=
;ARCANE
;-=-=-=-=-=-=-=-=-=-=-=-=-=-=-=-=-=-=-=-=-=-=-=-=-=-=-=-=-=-=-=-=-=-=-=-=-=-=-=-=-=-=-=-=-=-=-=-=-=-=-=-=-=-=-=-=-=-=-=-=-=-=
	66,	"Mind Bomb",		0,	6,	30,	0,	1,		4000000,13,	11,	80,	100,	0,		0,		,			,			,			,	
	67,	"Mind Shatter",		0,	6,	50,	0,	2,		4000000,23,	11,	80,	100,	0,		0,		,			,			,			,	
	68,	Confusion,			0,	6,	-8,	0,	3,		4000000,33,	11,	80,	100,	0,		0,		,			,			,			,	
	69,	"Mind Wave",		0,	6,	100,0,	104,	4000000,43,	11,	80,	100,	0,		0,		,			,			,			,	
	70,	"Arcane Missile",	0,	6,	130,0,	5,		4000000,53,	11,	80,	100,	0,		0,		,			,			,			,	
	71,	"Aura Blast",		0,	6,	175,0,	6,		4000000,63,	11,	80,	100,	0,		0,		,			,			,			,	
	72,	"Dark Crystals",	0,	6,	200,0,	7,		4000000,73,	11,	50,	100,	0,		0,		,			,			,			,	
	73,	"Spectral Hand",	0,	6,	250,0,	8,		4000000,83,	11,	50,	100,	0,		0,		,			,			,			,	
	74,	"Brain Liquidator",	0,	6,	300,0,	109,	4000000,93,	11,	50,	100,	0,		0,		,			,			,			,	
;-=-=-=-=-=-=-=-=-=-=-=-=-=-=-=-=-=-=-=-=-=-=-=-=-=-=-=-=-=-=-=-=-=-=-=-=-=-=-=-=-=-=-=-=-=-=-=-=-=-=-=-=-=-=-=-=-=-=-=-=-=-=
;AIR
;-=-=-=-=-=-=-=-=-=-=-=-=-=-=-=-=-=-=-=-=-=-=-=-=-=-=-=-=-=-=-=-=-=-=-=-=-=-=-=-=-=-=-=-=-=-=-=-=-=-=-=-=-=-=-=-=-=-=-=-=-=-=
	77,	Breeze,				0,	7,	30,	0,	1,		4000000,12,	11,	80,	100,	0,		0,		,			,			,			,	
	78,	Storm,				0,	7,	50,	0,	2,		4000000,22,	11,	80,	100,	0,		0,		,			,			,			,	
	79,	Flurry,				0,	7,	75,	0,	3,		4000000,32,	11,	80,	100,	0,		0,		,			,			,			,	
	80,	Tornado,				0,	7,	100,0,	104,	4000000,42,	11,	80,	100,	0,		0,		,			,			,			,	
	81,	Typhoon,			0,	7,	130,0,	5,		4000000,52,	11,	80,	100,	0,		0,		,			,			,			,	
	82,	Tempest,			0,	7,	175,0,	6,		4000000,62,	11,	80,	100,	0,		0,		,			,			,			,	
	83,	Whirlwind,			0,	7,	200,0,	7,		4000000,72,	11,	80,	100,	0,		0,		,			,			,			,	
	84,	"Wind Spear",		0,	7,	250,0,	8,		4000000,82,	11,	80,	100,	0,		0,		,			,			,			,	
	85,	"Air Sphere",		0,	7,	300,0,	109,	4000000,92,	11,	80,	100,	0,		0,		,			,			,			,	
;-=-=-=-=-=-=-=-=-=-=-=-=-=-=-=-=-=-=-=-=-=-=-=-=-=-=-=-=-=-=-=-=-=-=-=-=-=-=-=-=-=-=-=-=-=-=-=-=-=-=-=-=-=-=-=-=-=-=-=-=-=-=
;BUFFS/DEBUFFS/NEW SPELLS
;-=-=-=-=-=-=-=-=-=-=-=-=-=-=-=-=-=-=-=-=-=-=-=-=-=-=-=-=-=-=-=-=-=-=-=-=-=-=-=-=-=-=-=-=-=-=-=-=-=-=-=-=-=-=-=-=-=-=-=-=-=-=
	100,"Bless Dexterity",	0,	0,	-124,0,	5,		4000000,2,	11,	40,	100,	0,		0,		,			,			,			,	
	101,"Bless Strength",	0,	0,	-120,0,	6,		4000000,1,	11,	40,	100,	0,		0,		,			,			,			,	
	102,"Bless Stamina",	0,	0,	-122,0,	7,		4000000,3,	11,	40,	100,	0,		0,		,			,			,			,	
	103,"Bless Wisdom",		0,	0,	-121,0,	8,		4000000,0,	11,	40,	100,	0,		0,		,			,			,			,	
	104,"Curse Dexterity",	0,	4,	-24,0,	5,		4000000,102,11,	40,	100,	0,		0,		,			,			,			,	
	105,"Curse Strength",	0,	4,	-20,0,	6,		4000000,101,11,	40,	100,	0,		0,		,			,			,			,	
	106,"Curse Stamina",	0,	4,	-22,0,	7,		4000000,103,11,	40,	100,	0,		0,		,			,			,			,	
	107,"Curse Wisdom",		0,	4,	-21,0,	8,		4000000,100,11,	40,	100,	0,		0,		,			,			,			,	
	108,"Major Invigoration",0,	0,	1500,0,	7,		4000000,109,11,	55,	100,	0,		0,		,			,			,			,	
;-=-=-=-=-=-=-=-=-=-=-=-=-=-=-=-=-=-=-=-=-=-=-=-=-=-=-=-=-=-=-=-=-=-=-=-=-=-=-=-=-=-=-=-=-=-=-=-=-=-=-=-=-=-=-=-=-=-=-=-=-=-=
;TELEPORTATION SPELLS
;-=-=-=-=-=-=-=-=-=-=-=-=-=-=-=-=-=-=-=-=-=-=-=-=-=-=-=-=-=-=-=-=-=-=-=-=-=-=-=-=-=-=-=-=-=-=-=-=-=-=-=-=-=-=-=-=-=-=-=-=-=-=
	120,"Teleport Home",	-1,	0,	-300.543,1,	0,		4000000,9,	11,	80,	100,	0,		0,		,			,			,			,	
	121,"Teleport Harael Village",-1,	0,	-300.544,1,	0,		4000000,9,	11,	80,	100,	0,		0,		,			,			,			,	
	122,"Teleport Lopal Village",-1,	0,	-300.545,1,	0,		4000000,9,	11,	80,	100,	0,		0,		,			,			,			,	
	123,"Teleport Baelington",-1,	0,	-300.546,1,	0,		4000000,9,	11,	80,	100,	0,		0,		,			,			,			,	
	124,"Teleport Darkchill Village",-1,	0,	-300.547,1,	0,		4000000,9,	11,	80,	100,	0,		0,		,			,			,			,	
;-=-=-=-=-=-=-=-=-=-=-=-=-=-=-=-=-=-=-=-=-=-=-=-=-=-=-=-=-=-=-=-=-=-=-=-=-=-=-=-=-=-=-=-=-=-=-=-=-=-=-=-=-=-=-=-=-=-=-=-=-=-=
;LEVEL 0 SPELLS
;-=-=-=-=-=-=-=-=-=-=-=-=-=-=-=-=-=-=-=-=-=-=-=-=-=-=-=-=-=-=-=-=-=-=-=-=-=-=-=-=-=-=-=-=-=-=-=-=-=-=-=-=-=-=-=-=-=-=-=-=-=-=
	125,	Aid,				0,	0,	25,	0,	0,		4000000,17,	11,	80,	100,	0,		0,		,			,			,			,	
	126,	"Water Squirt",		0,	1,	15,	0,	0,		4000000,15,	11,	80,	100,	0,		0,		,			,			,			,	
	127,	Sap,				0,	2,	15,	0,	0,		4000000,10,	11,	80,	100,	0,		0,		,			,			,			,	
	128,	Pebbles,			0,	3,	15,	0,	0,		4000000,16,	11,	80,	100,	0,		0,		,			,			,			,	
	129,	Shade,				0,	4,	15,	0,	0,		4000000,11,	11,	80,	100,	0,		0,		,			,			,			,	
	130,	Singe,				0,	5,	15,	0,	0,		4000000,64,	11,	80,	100,	0,		0,		,			,			,			,	
	131,	Breeze,				0,	7,	15,	0,	0,		4000000,12,	11,	80,	100,	0,		0,		,			,			,			,	
	132,	Haunt,				0,	6,	15,	0,	0,		4000000,83,	11,	80,	100,	0,		0,		,			,			,			,	
;-=-=-=-=-=-=-=-=-=-=-=-=-=-=-=-=-=-=-=-=-=-=-=-=-=-=-=-=-=-=-=-=-=-=-=-=-=-=-=-=-=-=-=-=-=-=-=-=-=-=-=-=-=-=-=-=-=-=-=-=-=-=
;NECROMANCER SUMMONS
;-=-=-=-=-=-=-=-=-=-=-=-=-=-=-=-=-=-=-=-=-=-=-=-=-=-=-=-=-=-=-=-=-=-=-=-=-=-=-=-=-=-=-=-=-=-=-=-=-=-=-=-=-=-=-=-=-=-=-=-=-=-=
	133,"Weak Skeleton",	0,	4,	-203.65,10,	0.0.0.501,4000000,21,	11,	80,	100,	0,		0,		,			,			,			,	
	134,"Skeleton Fighter",	0,	4,	-203.66,50,	2.0.20.501,4000000,21,	11,	80,	100,	0,		0,		,			,			,			,	
	135,"Skeleton Mage",	0,	4,	-203.100,100,4.0.40.501,4000000,21,	11,	80,	100,	0,		0,		,			,			,			,	
	136,"Skeleton Berserker",0,	4,	-203.68,200,6.0.60.501,4000000,21,	11,	80,	100,	0,		0,		,			,			,			,	
	137,Zombie,				0,	4,	-203.69,250,8.0.80.501,4000000,21,	11,	80,	100,	0,		0,		,			,			,			,	
	138,Demon,				0,	4,	-203.70,350,9.0.95.501,4000000,21,	11,	80,	100,	0,		0,		,			,			,			,	
;-=-=-=-=-=-=-=-=-=-=-=-=-=-=-=-=-=-=-=-=-=-=-=-=-=-=-=-=-=-=-=-=-=-=-=-=-=-=-=-=-=-=-=-=-=-=-=-=-=-=-=-=-=-=-=-=-=-=-=-=-=-=
; Be sure to leave a blank line at the end of this file
