   0, "Evilgreen.jpg", "Evilgreen", "Evilgreen", 0
   1, "Cloud03.jpg", "Cloud03", "Level Heaven",
   2, "castle1.jpg", "castle1", "Black Wrath Castle",
   3, "wormcave.jpg", "wormcave", "Black Wrath Chamber",
   4, "map5.jpg", "map5", "Lost Vilage",
   5, "arenatown.jpg", "arenatown", "Pk Arena", 22
   6, "pet.jpg.", "pet" "Pet Arena" 9
   7, "land.jpg.", "land", "Gangster Land",