100,	0,	25,	0,	"Beast",	20,	1
	DESCRIPTION	""
	AUTO_MAX	25, 5000, 10, 1000, 0
	MAX_ABILITY	60, 60, 60, 60, 60
	HAND_RATIO	40
	MAGIC_RATIO	20
	101,	0,	0,	0,	"Beast"
	199,	0,	0,	0,	"Beast"

200,	0,	50,	0,	"Beast",	30,	1
	DESCRIPTION	""
	AUTO_MAX	50, 5000, 20, 1000, 0
	MAX_ABILITY	120, 120, 120, 120, 120
	HAND_RATIO	60
	MAGIC_RATIO	30
	HIDDEN_CLASS
	201,	0,	0,	0,	"Beast"
	299,	0,	0,	0,	"Beast"

300,	0,	50,	0,	"Beast",	35,	1
	DESCRIPTION	""
	AUTO_MAX	50, 5000, 20, 1000, 0
	MAX_ABILITY	120, 120, 120, 120, 120
	HAND_RATIO	50
	MAGIC_RATIO	35
	HIDDEN_CLASS
	301,	0,	0,	0,	"Beast"
	399,	0,	0,	0,	"Beast"

400,	0,	75,	0,	"Beast",	40,	1
	DESCRIPTION	""
	AUTO_MAX	75, 5000, 30, 1000, 0
	MAX_ABILITY	180, 180, 180, 180, 180
	HAND_RATIO	80
	MAGIC_RATIO	40
	HIDDEN_CLASS
	401,	0,	0,	0,	"Beast"
	499,	0,	0,	0,	"Beast"

500,	0,	75,	0,	"Beast",	45,	1
	DESCRIPTION	""
	AUTO_MAX	75, 5000, 30, 1000, 0
	MAX_ABILITY	180, 180, 180, 180, 180
	HAND_RATIO	70
	MAGIC_RATIO	45
	HIDDEN_CLASS
	501,	0,	0,	0,	"Beast"
	599,	0,	0,	0,	"Beast"

600,	0,	75,	0,	"Beast",	50,	1
	DESCRIPTION	""
	AUTO_MAX	75, 5000, 30, 1000, 0
	MAX_ABILITY	180, 180, 180, 180, 180
	HAND_RATIO	60
	MAGIC_RATIO	50
	HIDDEN_CLASS
	601,	0,	0,	0,	"Beast"
	699,	0,	0,	0,	"Beast"

700,	0,	100,	0,	"Beast",	50,	1
	DESCRIPTION	""
	AUTO_MAX	100, 5000, 40, 1000, 0
	MAX_ABILITY	240, 240, 240, 240, 240
	HAND_RATIO	100
	MAGIC_RATIO	50
	HIDDEN_CLASS
	701,	0,	0,	0,	"Beast"
	799,	0,	0,	0,	"Beast"

800,	0,	100,	0,	"Beast",	55,	1
	DESCRIPTION	""
	AUTO_MAX	100, 5000, 40, 1000, 0
	MAX_ABILITY	240, 240, 240, 240, 240
	HAND_RATIO	90
	MAGIC_RATIO	55
	HIDDEN_CLASS
	801,	0,	0,	0,	"Beast"
	899,	0,	0,	0,	"Beast"

900,	0,	100,	0,	"Beast",	60,	1
	DESCRIPTION	""
	AUTO_MAX	100, 5000, 40, 1000, 0
	MAX_ABILITY	240, 240, 240, 240, 240
	HAND_RATIO	80
	MAGIC_RATIO	60
	HIDDEN_CLASS
	901,	0,	0,	0,	"Beast"
	999,	0,	0,	0,	"Beast"

1000,	0,	100,	0,	"Beast",	65,	1
	DESCRIPTION	""
	AUTO_MAX	100, 5000, 40, 1000, 0
	MAX_ABILITY	240, 240, 240, 240, 240
	HAND_RATIO	70
	MAGIC_RATIO	65
	HIDDEN_CLASS
	1001,	0,	0,	0,	"Beast"
	1099,	0,	0,	0,	"Beast"








; Be sure to leave this comment or a blank line at the very end
