SCENE	101
	THEME	0

@mon20
	IF	I50, @earth1
	IF	I51, @death1
	IF	I52, @fire1
	IF	I53, @spirit1
	IF	I54, @air1
	IF	I55, @life1
	IF	I56, @water1
	IF	I57, @nature1
	IF	I58, @chaos1
	IF	-I58, @alone
	END
@earth1
	FIGHT	-332
	FIGHT
	END
@death1
	FIGHT	-342
	FIGHT
	END
@fire1
	FIGHT	-352
	FIGHT
	END
@spirit1
	FIGHT	-362
	FIGHT
	END
@air1
	FIGHT	-382
	FIGHT
	END
@life1
	FIGHT	-302
	FIGHT
	END
@water1
	FIGHT	-312
	FIGHT
	END
@nature1
	FIGHT	-322
	FIGHT
	END
@chaos1
	FIGHT	-392
	FIGHT
	END
END
;================================================================================================
SCENE	111
	THEME	0

@mon20a
	IF	I50, @earth1
	IF	I51, @death1
	IF	I52, @fire1
	IF	I53, @spirit1
	IF	I54, @air1
	IF	I55, @life1
	IF	I56, @water1
	IF	I57, @nature1
	IF	I58, @chaos1
	IF	-I58, @alone
	END
@earth1
	GIVE	H99999
	GIVE	M99999
	FIGHT	-332
	FIGHT
	GIVE	H99999
	GIVE	M99999
	END
@death1
	GIVE	H99999
	GIVE	M99999
	FIGHT	-342
	FIGHT
	GIVE	H99999
	GIVE	M99999
	END
@fire1
	GIVE	H99999
	GIVE	M99999
	FIGHT	-352
	FIGHT
	GIVE	H99999
	GIVE	M99999
	END
@spirit1
	GIVE	H99999
	GIVE	M99999
	FIGHT	-362
	FIGHT
	GIVE	H99999
	GIVE	M99999
	END
@air1
	GIVE	H99999
	GIVE	M99999
	FIGHT	-382
	FIGHT
	GIVE	H99999
	GIVE	M99999
	END
@life1
	GIVE	H99999
	GIVE	M99999
	FIGHT	-302
	FIGHT
	GIVE	H99999
	GIVE	M99999
	END
@water1
	GIVE	H99999
	GIVE	M99999
	FIGHT	-312
	FIGHT
	GIVE	H99999
	GIVE	M99999
	END
@nature1
	GIVE	H99999
	GIVE	M99999
	FIGHT	-322
	FIGHT
	GIVE	H99999
	GIVE	M99999
	END
@chaos1
	GIVE	H99999
	GIVE	M99999
	FIGHT	-392
	FIGHT
	GIVE	H99999
	GIVE	M99999
	END
END