	0,	"BATTLE DOME.jpg",	"BATTLE DOME",	"BATTLE DOME",		0
	1,	"lvl10max.jpg",		"LVL10MAX",		"LVL10MAX",			0
	2,	"lvl20max.jpg",		"LVL20MAX",		"LVL20MAX",			0
	3,	"lvl30max.jpg",		"lvl30max",		"lvl30max",			0
	4,	"lvl40max.jpg",		"lvl40max",		"lvl40max",			0
	5,	"lvl50max.jpg",		"lvl50max",		"lvl50amx",			0
	6,	"lvl60max.jpg",		"lvl60max",		"lvl60max",			0
	7,	"lvl70max.jpg",		"lvl70max",		"lvl70max",			0
	8,	"lvl80max.jpg",		"lvl80max",		"lvl80max",			0
	9,	"lvl90max.jpg",		"lvl90max",		"lvl90max",			0
	10,	"lvl100max.jpg",	"lvl100max",		"lvl100max",		0
	11,	"lvl100+.jpg",		"lvl100+",		"lvl100+",			0
	12,	"BATTLE DOME.jpg",	"PK ARENA",		"PK ARENA",			4
	13,	"BATTLE DOME.jpg",	"PET ARENA",		"PET ARENA",		1