   0, "cheater.jpg", "start", "Starting", 40
   1, "cheater.jpg", "CHEATER!", "CHEATER!", 40
   2, "Beyblade.jpg", "Beyblade", "Central City", 36
   3, "city.jpg", "city", "Central City Street 1", 32
   4, "cityhouse.jpg", "cityhouse", "Central City House", 32
   5, "city2.jpg", "city2", "Central City Street 2", 32
   6, "city2b.jpg", "city2b", "Central City Street 2b", 32
   7, "city3.jpg", "city3", "Central City Street 3", 32
   8, "city3b.jpg", "city3b", "Central City Street 3b", 32
   9, "graveyard.jpg", "graveyard", "Graveyard", 32
   10, "city4.jpg", "city4", "Central City Street 4", 32
   11, "game.jpg", "game", "Central City Game Store", 32
   12, "gamein.jpg", "gamein", "Central City Game Store (Inside)", 32
   13, "city5.jpg", "city5", "Central City Street 5", 32
   14, "city6.jpg", "city6", "Central City Street 6", 32
   15, "city6b.jpg", "city6b", "Central City Street 6b", 32
   16, "city6c.jpg", "city6c", "Central City Hideout", 32
   17, "store.jpg", "store", "Central Store", 32
   18, "storein.jpg", "storein", "Central Store (Inside)", 32
   19, "storeinb.jpg", "storeinb", "Central Store Basement", 32
   20, "museum.jpg", "museum", "Museum", 32
   21, "museumin.jpg", "museumin", "Museum (Inside)", 32
   22, "museuminb.jpg", "museuminb", "Museum Room B", 32
   23, "museuminc.jpg", "museuminc", "Museum Room C", 32
   24, "park.jpg", "park", "Central Park Street 1", 32
   25, "park2.jpg", "park2", "Central Park Street 2", 32
   26, "park3.jpg", "park3", "Central Park Street 3", 32
   27, "park4.jpg", "park4", "Central Park Street 4", 32
   28, "river.jpg", "river", "River", 32
   29, "riverl.jpg", "riverl", "River (Left End)", 32
   30, "riverr.jpg", "riverr", "River (Right Side)", 32
   31, "riverr2.jpg", "riverr2", "River (Right End)", 32
   32, "arcade.jpg", "arcade", "Arcade", 32
   33, "arcadein.jpg", "arcadein", "Arcade (Inside)", 32
   34, "arcadef2.jpg", "arcadef2", "Arcade Floor 2", 32
   35, "arcadef3.jpg", "arcadef3", "Arcade Floor 3", 32
   36, "arcaderoof.jpg", "arcaderoof", "Arcade Roof", 32
   37, "aquarium.jpg", "aquarium", "Aquarium Entrance", 32
   38, "aquarium2.jpg", "aquarium2", "Aquarium Street 1", 32
   39, "aquarium3.jpg", "aquarium3", "Aquarium Street 2", 32
   40, "docks.jpg", "docks", "Docks", 32
   41, "docksb.jpg", "docksb", "Docks Storage", 32
   42, "docks2.jpg", "docks2", "Docks Section 2", 32
   43, "docks2b.jpg", "docks2b", "Docks Section 2b", 32
   44, "docks2c.jpg", "docks2c", "Docks Section 2c", 32
   45, "base.jpg", "base", "Base", 32
   46, "basein.jpg", "basein", "Base (Inside)", 32
   47, "basein2.jpg", "basein2", "Base Room 2", 32
   48, "basein3.jpg", "basein3", "Base Room 3", 32
   49, "shipe.jpg", "shipe", "Ship Entrance", 32
   50, "shipe2.jpg", "shipe2", "Ship Bridge", 32
   51, "shipmf.jpg", "shipmf", "Ship Main Floor", 32
   52, "shipmfb.jpg", "shipmfb", "Ship Main Floor Battle", 32
   53, "shipf2.jpg", "shipf2", "Ship Floor 2", 32
   54, "shipf2r1.jpg", "shipf2r1", "Ship Floor 2 Room 1", 32
   55, "shipf2r2.jpg", "shipf2r2", "Ship Floor 2 Room 2", 32
   56, "shipf2r3.jpg", "shipf2r3", "Ship Floor 2 Room 3", 32
   57, "shiplf.jpg", "shiplf", "Ship Last Floor", 32

