; Made by Silver for RoT
;
; - = for wanting to boot out cheaters, not keep them in.
	COMPARE #<num.timeYear>, "2005"
	IF< @exit
	COMPARE  "#<num.timeNow>","1143032906"
	IF< @S11
	IF C41,  @exitbannish
	IF #99,  @exitbannish
	IF T172, @exitbannish
	IF M0,   @exitbannish
	IF M2,   @exitbannish
	IF M4,   @exitbannish
	PARTY -T172
	PARTY -M0
	PARTY -M2
	PARTY -M4
	PARTY -C41
	PARTY -#99
	EJECT -T172
	EJECT -M0
	EJECT -M2
	EJECT -M4

	GOTO @endlpscript4
@exitbannish
	HOST_GIVE T172
	HOST_GIVE T650
	EJECT T172
	GOTO LINK 99,0,1
@endlpscript4