; Made by Silver for RoT
;	EJECT -C41
;	EJECT C62
;	EJECT #99
;	EJECT F261576
;
; Needs to be -t172 cause I want to boot out the people who have t172.
;
	EJECT -T172

	EJECT -M0
	EJECT -M2
	EJECT -M4
	EJECT -T98

;	EJECT T114
;	EJECT T115
;	EJECT T116
;	EJECT T117	
;	EJECT S25
;	EJECT S26
;	EJECT S27
;	EJECT S28
;	EJECT S29
;	EJECT S30
;	EJECT S31
;	EJECT S32
;	EJECT S33
;	EJECT S62
;	EJECT S63
;	EJECT S64
;	EJECT S67
;	EJECT S85
;	EJECT S86
;	EJECT S87
;	EJECT S88
;	EJECT S89
;	EJECT S97
;	EJECT S98
;	EJECT S99
;	EJECT S300
;	EJECT S301
;	EJECT S302
;	EJECT S303
;	EJECT S304
;	EJECT S305
;	EJECT S306
;	EJECT S400
;	EJECT S401
;	EJECT S402
;	EJECT S403
;	EJECT S404
;	EJECT S405
;	EJECT S112
;	EJECT S113
;	EJECT S114
;	EJECT S131
;	EJECT S132
;	EJECT S133
;	EJECT S134
;	EJECT S137
;	EJECT S152
;	EJECT S153
;	EJECT S154
;	EJECT S157
;	EJECT S158
;	EJECT S159
;	EJECT S210
;	EJECT S211
;	EJECT S212
;	EJECT S172
;	EJECT S173
;	EJECT S174
;	EJECT S192
;	EJECT S193
;	EJECT S194
;	EJECT S195
;	EJECT S196
;	EJECT S200
;	EJECT S201
;	EJECT S202
;	EJECT S203
;	EJECT S67
;	EJECT S306
;	EJECT S88
;	EJECT S89
;	EJECT S97
;	EJECT S98
;	EJECT S99
;	EJECT S157
;	EJECT S158
;	EJECT S172
;	EJECT S174
;	EJECT S193
;	EJECT S196
;	EJECT S250
;	EJECT S251
;	EJECT S252
;	EJECT S253
;	EJECT S254
;	EJECT S255
;	EJECT S256
;	EJECT S257
;	EJECT S258
;	EJECT S259
;	EJECT S260
;	EJECT I769
;	EJECT I99
;	EJECT C36-GS
;	EJECT C37-GS
;	EJECT C38-GS
;	EJECT C26-T425
;	EJECT C31-T428
;	EJECT T295+T296
;	EJECT T430+T431
;	EJECT T432+T433
;	EJECT I160+I180
;	EJECT I161+I181
;	EJECT I170+I190
;	EJECT I171+I191
;	EJECT I172+I192
;	EJECT I173+I193

; Comment: Don't really need a comment here, but here goes anyway; this script will kick out all scum.
; Comment2: It was 3 AM when I made this script, don't hold the lousy comments against me. -.-