; Made by Silver for RoT


ACTOR 31, "Escape!",rotm2,11,90,20
IF DEAD, @eventActorClick31
	IF I2143-T555, @leavebutton
	IF I2148+I2149+I2150+I2151+I2152+I2153, @leavebutton
END
@leavebutton
ACTOR 31, "Leave",rotm2,11,90,20
	END

@eventActorClick31
	MOVE 31, 91,21,1
	WAIT 0.5

	EJECT T172

	IF I2148+I2149+I2150+I2151+I2152+I2153, @leavehellskitchen

	TAKE I2148
	TAKE I2149
	TAKE I2150
	TAKE I2151
	TAKE I2152
	TAKE I2153
	TAKE T607

@leavehellskitchen
	GOTO LINK 15,0,1

; Comment: Rotten cheese is evilll!