;Bastards

STRCMP #<str.soul> "SOUL 1188"
	IF= @unforgiven

STRCMP #<str.soul> "SOUL 1669"
	IF= @unforgiven

STRCMP #<str.soul> "4A3C4703"
	IF= @unforgiven

STRCMP #<str.soul> "52F194A0"
	IF= @unforgiven

STRCMP #<str.soul> "SOUL 2488"
	IF= @unforgiven

STRCMP #<str.soul> "SOUL 1777"
	IF= @unforgiven

STRCMP #<str.soul> "SOUL 2516"
	IF= @unforgiven

STRCMP #<str.soul> "47EDA33A"
	IF= @unforgiven

STRCMP #<str.soul> "SOUL 2515"
	IF= @unforgiven

STRCMP #<str.soul> "42CC1E45"
	IF= @unforgiven

STRCMP #<str.soul> "5736ACD3"
	IF= @unforgiven


;	IF T555+M2, @endi
;	IF T555+M0, @endi
;	IF M0-T555, @unforgiven
;	IF M2-T555, @unforgiven

GOTO @end

END

;@unforgiven
;	HOST_GIVE T555
;	PARTY T555 
;	GOTO LINK 666,0
END

@endi
GOTO EXIT
END

@end